<?xml version="1.0" encoding="UTF-8"?>
<session version="1.0">
<refactoring comment="Rename resource &apos;house_building_accountability/src/org/house-os-bad.xml&apos; to &apos;house-os-aci.xml&apos;" description="Rename resource &apos;house-os-bad.xml&apos;" flags="7" id="org.eclipse.ltk.core.refactoring.rename.resource" input="src/org/house-os-bad.xml" name="house-os-aci.xml" stamp="1519912495177" updateReferences="true"/>
</session>