[JaCaMoLauncher] Workspace mining created.
[JaCaMoLauncher] artifact m1view: mining.MiningPlanet(3,0) at mining created.
[JaCaMoLauncher] artifact m2view: mining.MiningPlanet(3,1) at mining created.
[JaCaMoLauncher] artifact m4view: mining.MiningPlanet(3,3) at mining created.
[JaCaMoLauncher] artifact miningProt: mining.MiningProtocol() at mining created.
[JaCaMoLauncher] artifact m3view: mining.MiningPlanet(3,2) at mining created.
[miner4] I am going to go near (16,24)
[miner2] I am going to go near (5,9)
[miner3] I am going to go near (19,26)
[miner4] miner4 as miner1
[miner3] miner3 as miner3
[miner2] miner2 as miner2
[miner1] I am going to go near (23,13)
[miner1] miner1 as miner4
[miner4] sono LIBERO. Trovato oro 19 21 faccio OFFER
[miner1] Sono LIBERO, COMMITMENT RILEVATO per 19 21
[miner3] Sono LIBERO, COMMITMENT RILEVATO per 19 21
[miner2] Sono LIBERO, COMMITMENT RILEVATO per 19 21
[miner1] faccio renounce per 19,21 perche' distanza 1 e' piu' bassa della mia che e' 39
[miner3] faccio renounce per 19,21 perche' distanza 1 e' piu' bassa della mia che e' 16
[miner2] faccio renounce per 19,21 perche' distanza 1 e' piu' bassa della mia che e' 21
[miner3] sono LIBERO. Trovato oro 10 20 faccio OFFER
[miner4] Commitment di cui sono debitore e' diventato DETACHED per 19 21
[miner1] Sono LIBERO, COMMITMENT RILEVATO per 10 20
[miner2] Sono LIBERO, COMMITMENT RILEVATO per 10 20
[miner1] faccio renounce per 10,20 perche' distanza 1 e' piu' bassa della mia che e' 24
[miner2] faccio renounce per 10,20 perche' distanza 1 e' piu' bassa della mia che e' 25
[miner4] Dropping near(_,_) desires and intentions to handle gold(19,21)
[miner4] Going for gold(19,21)
[miner4] Sono gia' COMMITTATO, faccio RINUNCIA di 10, 20 verso miner3
[miner4] Handling gold(19,21) now.
[miner4] I've reached 19x21
[miner3] Commitment di cui sono debitore e' diventato DETACHED per 10 20
[miner3] Dropping near(_,_) desires and intentions to handle gold(10,20)
[miner3] Going for gold(10,20)
[miner3] Handling gold(10,20) now.
[miner2] Start new reasoning cycle
[miner2] I finished!
[miner1] Start new reasoning cycle
[miner1] I finished!
[miner4] Start new reasoning cycle
[miner4] I finished!
[miner3] Start new reasoning cycle
[miner3] Added event +cell(15,20,gold)[artifact_id(cobj_2),obs_prop_id("obs_id_mining-0ace627d-3749-4a79-a5e7-e80f967bbd3510_9"),percept_type("obs_prop"),source(percept),artifact_name(cobj_2,"m3view"),artifact_type(cobj_2,"mining.MiningPlanet"),workspace(cobj_2,"mining",cobj_1)], events = [+cell(15,20,gold)[artifact_id(cobj_2),obs_prop_id("obs_id_mining-0ace627d-3749-4a79-a5e7-e80f967bbd3510_9"),percept_type("obs_prop"),source(percept),artifact_name(cobj_2,"m3view"),artifact_type(cobj_2,"mining.MiningPlanet"),workspace(cobj_2,"mining",cobj_1)]]
[miner3] I finished!
