[JaCaMoLauncher] Workspace mining created.
[JaCaMoLauncher] artifact m1view: mining.MiningPlanet(3,0) at mining created.
[JaCaMoLauncher] artifact m2view: mining.MiningPlanet(3,1) at mining created.
[JaCaMoLauncher] artifact miningProt: mining.MiningProtocol() at mining created.
[miner1] I am going to go near (17,30)
[miner2] I am going to go near (13,9)
[miner2] miner2 as miner2
[miner1] miner1 as miner1
[miner2] sono LIBERO. Trovato oro 16 1 faccio OFFER
[miner1] Sono LIBERO, COMMITMENT RILEVATO per 16 1
[miner1] faccio renounce per 16,1 perche' distanza 1 e' piu' bassa della mia che e' 13
[miner2] Commitment di cui sono debitore e' diventato DETACHED per 16 1
[miner2] Dropping near(_,_) desires and intentions to handle gold(16,1)
[miner2] Going for gold(16,1)
[miner2] Handling gold(16,1) now.
[miner2] I've reached 16x1
[miner2] sto TRASPORTANDO, faccio OFFER FINTA per 13,1
[miner1] Sono LIBERO, COMMITMENT RILEVATO per 13 1
[miner1] faccio bid con distanza 5, l'altra e' 1000 di miner2
[miner2] Ho fatto bid per 13, 1 di 1000, altra bid e' di miner1 di 5
[miner1] Commitment di cui sono debitore e' diventato DETACHED per 13 1
[miner1] Dropping near(_,_) desires and intentions to handle gold(13,1)
[miner1] Going for gold(13,1)
[miner1] Handling gold(13,1) now.
[miner2] la mia BID e' peggiore, FACCIO RENOUNCE w WITHDRAW del mio commitment
[miner2] sto TRASPORTANDO, faccio OFFER FINTA per 11,2
[miner1] Sono gia' COMMITTATO, faccio RINUNCIA di 11, 2 verso miner2
[miner1] ho un COMMITMENT DETACHED in 13,1. Trovato oro 11 2, io sono in 10,1 faccio WITHDRAW e OFFER
[miner1] I am going to go near (13,8)
[miner2] I've reached 0x0
[miner1] I am at (13,7) which is near (13,8)
[miner2] Returning from IM l__95[source(self)], te=+!pos(0,0)[source(self)] unif={X=0, Y=0}
[miner2] Start new reasoning cycle
[miner2] I finished!
[miner1] Start new reasoning cycle
[miner1] I finished!
