[JaCaMoLauncher] Workspace mining created.
[JaCaMoLauncher] artifact m1view: mining.MiningPlanet(3,0) at mining created.
[JaCaMoLauncher] artifact m2view: mining.MiningPlanet(3,1) at mining created.
[JaCaMoLauncher] artifact m4view: mining.MiningPlanet(3,3) at mining created.
[JaCaMoLauncher] artifact miningProt: mining.MiningProtocol() at mining created.
[JaCaMoLauncher] artifact m3view: mining.MiningPlanet(3,2) at mining created.
[miner1] I am going to go near (20,1)
[miner2] I am going to go near (2,8)
[miner4] I am going to go near (28,20)
[miner3] I am going to go near (14,33)
[miner4] miner4 as miner3
[miner3] miner3 as miner4
[miner1] miner1 as miner1
[miner2] miner2 as miner2
