[JaCaMoLauncher] Workspace mining created.
[JaCaMoLauncher] artifact m1view: mining.MiningPlanet(3,0) at mining created.
[JaCaMoLauncher] artifact m2view: mining.MiningPlanet(3,1) at mining created.
[JaCaMoLauncher] artifact m4view: mining.MiningPlanet(3,3) at mining created.
[JaCaMoLauncher] artifact miningProt: mining.MiningProtocol() at mining created.
[JaCaMoLauncher] artifact m3view: mining.MiningPlanet(3,2) at mining created.
[miner2] I am going to go near (0,26)
[miner4] I am going to go near (29,8)
[miner3] I am going to go near (23,4)
[miner1] I am going to go near (7,33)
[miner1] miner1 as miner4
[miner4] miner4 as miner2
[miner2] miner2 as miner1
[miner3] miner3 as miner3
[miner4] sono LIBERO. Trovato oro 26 21 faccio OFFER
[miner3] Sono LIBERO, COMMITMENT RILEVATO per 26 21
[miner2] Sono LIBERO, COMMITMENT RILEVATO per 26 21
[miner1] Sono LIBERO, COMMITMENT RILEVATO per 26 21
[miner3] faccio renounce per 26,21 perche' distanza 2 e' piu' bassa della mia che e' 20
[miner2] faccio renounce per 26,21 perche' distanza 2 e' piu' bassa della mia che e' 30
[miner1] faccio renounce per 26,21 perche' distanza 2 e' piu' bassa della mia che e' 42
[miner4] Commitment di cui sono debitore e' diventato DETACHED per 26 21
[miner4] Dropping near(_,_) desires and intentions to handle gold(26,21)
[miner4] Going for gold(26,21)
[miner4] Handling gold(26,21) now.
[miner4] I've reached 26x21
[miner4] sto TRASPORTANDO, faccio OFFER FINTA per 24,21
[miner3] Sono LIBERO, COMMITMENT RILEVATO per 24 21
[miner1] Sono LIBERO, COMMITMENT RILEVATO per 24 21
[miner2] Sono LIBERO, COMMITMENT RILEVATO per 24 21
[miner3] faccio bid con distanza 13, l'altra e' Other_Disk<no-value> di miner2
[miner1] faccio bid con distanza 35, l'altra e' Other_Disk<no-value> di miner2
[miner2] faccio bid con distanza 32, l'altra e' Other_Disk<no-value> di miner2
[miner4] Ho fatto bid per 24, 21 di 1000, altra bid e' di miner3 di 13
[miner1] Sono LIBERO, COMMITMENT RILEVATO per 24 21
[miner4] la mia BID e' peggiore, FACCIO RENOUNCE w WITHDRAW del mio commitment
[miner2] Sono LIBERO, COMMITMENT RILEVATO per 24 21
[miner3] Ho fatto bid per 24, 21 di 13, altra bid e' di miner4 di 35
[miner3] la mia BID e' migliore, NON FACCIO RENOUNCE
[miner1] faccio renounce per 24,21 perche' distanza 13 e' piu' bassa della mia che e' 35
[miner2] faccio renounce per 24,21 perche' distanza 13 e' piu' bassa della mia che e' 32
[miner4] Ho fatto bid per 24, 21 di 1000, altra bid e' di miner4 di 35
[miner2] Sono LIBERO, COMMITMENT RILEVATO per 24 21
[miner4] la mia BID e' peggiore, FACCIO RENOUNCE w WITHDRAW del mio commitment
[miner2] faccio bid con distanza 32, l'altra e' Other_Disk<no-value> di miner4
[miner4] Ho fatto bid per 24, 21 di 1000, altra bid e' di miner1 di 32
[miner3] Ho fatto bid per 24, 21 di 13, altra bid e' di miner1 di 32
[miner1] Ho fatto bid per 24, 21 di 35, altra bid e' di miner1 di 32
[miner3] la mia BID e' migliore, NON FACCIO RENOUNCE
[miner4] la mia BID e' peggiore, FACCIO RENOUNCE w WITHDRAW del mio commitment
[miner3] Commitment di cui sono debitore e' diventato DETACHED per 24 21
[miner1] la mia BID e' peggiore, FACCIO RENOUNCE w WITHDRAW del mio commitment
[miner3] Dropping near(_,_) desires and intentions to handle gold(24,21)
[miner3] Going for gold(24,21)
[miner3] Handling gold(24,21) now.
[miner4] sto TRASPORTANDO, faccio OFFER FINTA per 19,21
[miner2] Start new reasoning cycle
[miner2] I finished!
[miner1] Start new reasoning cycle
[miner1] I finished!
[miner4] Start new reasoning cycle
[miner4] I finished!
[miner3] Start new reasoning cycle
[miner3] Added event +cell(19,21,gold)[artifact_id(cobj_2),obs_prop_id("obs_id_mining-de93913b-0aa3-48c4-86a2-22b686419ef210_8"),percept_type("obs_prop"),source(percept),artifact_name(cobj_2,"m3view"),artifact_type(cobj_2,"mining.MiningPlanet"),workspace(cobj_2,"mining",cobj_1)], events = [+cell(19,21,gold)[artifact_id(cobj_2),obs_prop_id("obs_id_mining-de93913b-0aa3-48c4-86a2-22b686419ef210_8"),percept_type("obs_prop"),source(percept),artifact_name(cobj_2,"m3view"),artifact_type(cobj_2,"mining.MiningPlanet"),workspace(cobj_2,"mining",cobj_1)]]
[miner3] I finished!
