<?xml version="1.0" encoding="UTF-8"?>
<session version="1.0">
<refactoring comment="Rename resource &apos;accountability_board_test/src/agt/sample_agent.asl&apos; to &apos;alice.asl&apos;" description="Rename resource &apos;sample_agent.asl&apos;" flags="7" id="org.eclipse.ltk.core.refactoring.rename.resource" input="src/agt/sample_agent.asl" name="alice.asl" stamp="1516635326356" updateReferences="true"/>
</session>