<?xml version="1.0" encoding="UTF-8"?>
<session version="1.0">
<refactoring comment="Rename Java project &apos;CNP-Jade&apos; to &apos;cnpJade&apos;&#x0D;&#x0A;- Original element: &apos;CNP-Jade&apos;&#x0D;&#x0A;- Renamed element: &apos;CNP-Jade&apos;&#x0D;&#x0A;- Update references to refactored element" description="Rename Java project &apos;CNP-Jade&apos;" flags="7" id="org.eclipse.jdt.ui.rename.java.project" input="=CNP-Jade" name="cnpJade" references="true" stamp="1495456699665" version="1.0"/>
</session>