[companyE] No fail event was generated for +!apply_for_role(bricklayer)[source(self)]
[companyE] 
intention 285: 
    +!contract("Walls","myorg","hsh_group","acc_art")[source(giacomo)] <- ... !apply_for_role(Role); .foreach(.member(Role,Roles),{ !apply_for_role(Role) },java.util.ArrayList$Itr@550e1466,{GroupName="hsh_group", OrgId=cobj_7, Task="Walls", AccArtId=cobj_9, OrgName="myorg", Roles=[bricklayer], AccArtName="acc_art", GroupId=cobj_8}) / {GroupName="hsh_group", Role=bricklayer, OrgId=cobj_7, Task="Walls", AccArtId=cobj_9, OrgName="myorg", Roles=[bricklayer], AccArtName="acc_art", GroupId=cobj_8}

[companyE] Found a goal for which there is no applicable plan:+!apply_for_role(bricklayer)[source(self)]
[companyA] No fail event was generated for +!apply_for_role(plumber)[source(self)]
[companyC3] No fail event was generated for +!apply_for_role(electrician)[source(self)]
[companyA] 
intention 292: 
    +!contract("Plumbing","myorg","hsh_group","acc_art")[source(giacomo)] <- ... !apply_for_role(Role); .foreach(.member(Role,Roles),{ !apply_for_role(Role) },java.util.ArrayList$Itr@40e5a451,{GroupName="hsh_group", OrgId=cobj_5, Task="Plumbing", AccArtId=cobj_7, OrgName="myorg", Roles=[plumber], AccArtName="acc_art", GroupId=cobj_6}) / {GroupName="hsh_group", Role=plumber, OrgId=cobj_5, Task="Plumbing", AccArtId=cobj_7, OrgName="myorg", Roles=[plumber], AccArtName="acc_art", GroupId=cobj_6}

[companyC3] 
intention 290: 
    +!contract("ElectricalSystem","myorg","hsh_group","acc_art")[source(giacomo)] <- ... !apply_for_role(Role); .foreach(.member(Role,Roles),{ !apply_for_role(Role) },java.util.ArrayList$Itr@5b9ee72f,{GroupName="hsh_group", OrgId=cobj_12, Task="ElectricalSystem", AccArtId=cobj_14, OrgName="myorg", Roles=[electrician], AccArtName="acc_art", GroupId=cobj_13}) / {GroupName="hsh_group", Role=electrician, OrgId=cobj_12, Task="ElectricalSystem", AccArtId=cobj_14, OrgName="myorg", Roles=[electrician], AccArtName="acc_art", GroupId=cobj_13}

[companyC3] Found a goal for which there is no applicable plan:+!apply_for_role(electrician)[source(self)]
[companyD5] No fail event was generated for +!apply_for_role(painter)[source(self)]
[companyD5] 
intention 287: 
    +!contract("Painting","myorg","hsh_group","acc_art")[source(giacomo)] <- ... !apply_for_role(Role); .foreach(.member(Role,Roles),{ !apply_for_role(Role) },java.util.ArrayList$Itr@21dbf542,{GroupName="hsh_group", OrgId=cobj_12, Task="Painting", AccArtId=cobj_14, OrgName="myorg", Roles=[painter], AccArtName="acc_art", GroupId=cobj_13}) / {GroupName="hsh_group", Role=painter, OrgId=cobj_12, Task="Painting", AccArtId=cobj_14, OrgName="myorg", Roles=[painter], AccArtName="acc_art", GroupId=cobj_13}

[companyD5] Found a goal for which there is no applicable plan:+!apply_for_role(painter)[source(self)]
[companyB] No fail event was generated for +!apply_for_role(site_prep_contractor)[source(self)]
[companyB] 
intention 288: 
    +!contract("SitePreparation","myorg","hsh_group","acc_art")[source(giacomo)] <- ... !apply_for_role(Role); .foreach(.member(Role,Roles),{ !apply_for_role(Role) },java.util.ArrayList$Itr@6fc4deb,{GroupName="hsh_group", OrgId=cobj_5, Task="SitePreparation", AccArtId=cobj_7, OrgName="myorg", Roles=[site_prep_contractor], AccArtName="acc_art", GroupId=cobj_6}) / {GroupName="hsh_group", Role=site_prep_contractor, OrgId=cobj_5, Task="SitePreparation", AccArtId=cobj_7, OrgName="myorg", Roles=[site_prep_contractor], AccArtName="acc_art", GroupId=cobj_6}

[companyB] Found a goal for which there is no applicable plan:+!apply_for_role(site_prep_contractor)[source(self)]
[companyD1] No fail event was generated for +!apply_for_role(window_fitter)[source(self)]
[companyD1] 
intention 286: 
    +!contract("WindowsDoors","myorg","hsh_group","acc_art")[source(giacomo)] <- ... !apply_for_role(Role); .foreach(.member(Role,Roles),{ !apply_for_role(Role) },java.util.ArrayList$Itr@7a5f3d77,{GroupName="hsh_group", OrgId=cobj_12, Task="WindowsDoors", AccArtId=cobj_14, OrgName="myorg", Roles=[window_fitter,door_fitter], AccArtName="acc_art", GroupId=cobj_13}) / {GroupName="hsh_group", Role=window_fitter, OrgId=cobj_12, Task="WindowsDoors", AccArtId=cobj_14, OrgName="myorg", Roles=[window_fitter,door_fitter], AccArtName="acc_art", GroupId=cobj_13}

[companyD1] Found a goal for which there is no applicable plan:+!apply_for_role(window_fitter)[source(self)]
[companyA] Found a goal for which there is no applicable plan:+!apply_for_role(plumber)[source(self)]
[companyE] No fail event was generated for +!apply_for_role(roofer)[source(self)]
[companyE] 
intention 289: 
    +!contract("Roof","myorg","hsh_group","acc_art")[source(giacomo)] <- ... !apply_for_role(Role); .foreach(.member(Role,Roles),{ !apply_for_role(Role) },java.util.ArrayList$Itr@33f054b9,{GroupName="hsh_group", OrgId=cobj_7, Task="Roof", AccArtId=cobj_9, OrgName="myorg", Roles=[roofer], AccArtName="acc_art", GroupId=cobj_8}) / {GroupName="hsh_group", Role=roofer, OrgId=cobj_7, Task="Roof", AccArtId=cobj_9, OrgName="myorg", Roles=[roofer], AccArtName="acc_art", GroupId=cobj_8}

[companyE] Found a goal for which there is no applicable plan:+!apply_for_role(roofer)[source(self)]
[companyE] No fail event was generated for +!apply_for_role(bricklayer)[source(self)]
[companyE] 
intention 291: 
    +!contract("Floors","myorg","hsh_group","acc_art")[source(giacomo)] <- ... !apply_for_role(Role); .foreach(.member(Role,Roles),{ !apply_for_role(Role) },java.util.ArrayList$Itr@17082558,{GroupName="hsh_group", OrgId=cobj_7, Task="Floors", AccArtId=cobj_9, OrgName="myorg", Roles=[bricklayer], AccArtName="acc_art", GroupId=cobj_8}) / {GroupName="hsh_group", Role=bricklayer, OrgId=cobj_7, Task="Floors", AccArtId=cobj_9, OrgName="myorg", Roles=[bricklayer], AccArtName="acc_art", GroupId=cobj_8}

[companyE] Found a goal for which there is no applicable plan:+!apply_for_role(bricklayer)[source(self)]
