[companyD11] No fail event was generated for +!contract("WindowsDoors","myorg","hsh_group","acc_art")[source(giacomo)]
[companyD11] Found a goal for which there is no applicable plan:+!contract("WindowsDoors","myorg","hsh_group","acc_art")[source(giacomo)]
[companyB] No fail event was generated for +!contract("SitePreparation","myorg","hsh_group","acc_art")[source(giacomo)]
[companyB] Found a goal for which there is no applicable plan:+!contract("SitePreparation","myorg","hsh_group","acc_art")[source(giacomo)]
[companyC2] No fail event was generated for +!contract("Painting","myorg","hsh_group","acc_art")[source(giacomo)]
[companyC3] No fail event was generated for +!contract("ElectricalSystem","myorg","hsh_group","acc_art")[source(giacomo)]
[companyC2] Found a goal for which there is no applicable plan:+!contract("Painting","myorg","hsh_group","acc_art")[source(giacomo)]
[companyE] No fail event was generated for +!contract("Roof","myorg","hsh_group","acc_art")[source(giacomo)]
[companyC3] Found a goal for which there is no applicable plan:+!contract("ElectricalSystem","myorg","hsh_group","acc_art")[source(giacomo)]
[companyE] Found a goal for which there is no applicable plan:+!contract("Roof","myorg","hsh_group","acc_art")[source(giacomo)]
[companyE] No fail event was generated for +!contract("Walls","myorg","hsh_group","acc_art")[source(giacomo)]
[companyE] Found a goal for which there is no applicable plan:+!contract("Walls","myorg","hsh_group","acc_art")[source(giacomo)]
[companyE] No fail event was generated for +!contract("Floors","myorg","hsh_group","acc_art")[source(giacomo)]
[companyE] Found a goal for which there is no applicable plan:+!contract("Floors","myorg","hsh_group","acc_art")[source(giacomo)]
[companyA] No fail event was generated for +!contract("Plumbing","myorg","hsh_group","acc_art")[source(giacomo)]
[companyA] Found a goal for which there is no applicable plan:+!contract("Plumbing","myorg","hsh_group","acc_art")[source(giacomo)]
