[Include] as2j: error parsing "jar:file:/Users/ASUS/workspace/jacamo/build/libs/jacamo-0.7-SNAPSHOT.jar!/templates/common-moise.asl"
jason.asSyntax.parser.ParseException: Encountered ":" at line 16, column 7.
Was expecting one of:
    <VAR> ...
    "true" ...
    "false" ...
    "not" ...
    "~" ...
    "begin" ...
    "end" ...
    <NUMBER> ...
    <STRING> ...
    <ATOM> ...
    <UNNAMEDVAR> ...
    "+" ...
    "-" ...
    "(" ...
    
	at jason.asSyntax.parser.as2j.generateParseException(as2j.java:2785)
	at jason.asSyntax.parser.as2j.jj_consume_token(as2j.java:2665)
	at jason.asSyntax.parser.as2j.log_expr_factor(as2j.java:1221)
	at jason.asSyntax.parser.as2j.log_expr_trm(as2j.java:1180)
	at jason.asSyntax.parser.as2j.log_expr(as2j.java:1163)
	at jason.asSyntax.parser.as2j.plan(as2j.java:358)
	at jason.asSyntax.parser.as2j.agent(as2j.java:188)
	at jason.asSyntax.directives.Include.process(Include.java:81)
	at jason.asSyntax.directives.DirectiveProcessor.process(DirectiveProcessor.java:66)
	at jason.asSyntax.parser.as2j.directive(as2j.java:277)
	at jason.asSyntax.parser.as2j.agent(as2j.java:237)
	at jason.asSyntax.directives.Include.process(Include.java:81)
	at jason.asSyntax.directives.DirectiveProcessor.process(DirectiveProcessor.java:66)
	at jason.asSyntax.parser.as2j.directive(as2j.java:277)
	at jason.asSyntax.parser.as2j.agent(as2j.java:113)
	at jason.asSemantics.Agent.parseAS(Agent.java:431)
	at jason.asSemantics.Agent.parseAS(Agent.java:416)
	at jason.asSemantics.Agent.load(Agent.java:194)
	at jason.asSemantics.Agent.create(Agent.java:141)
	at jason.infra.centralised.CentralisedAgArch.createArchs(CentralisedAgArch.java:92)
	at jason.infra.centralised.RunCentralisedMAS.createAgs(RunCentralisedMAS.java:465)
	at jacamo.infra.JaCaMoLauncher.createAgs(JaCaMoLauncher.java:420)
	at jacamo.infra.JaCaMoLauncher.create(JaCaMoLauncher.java:240)
	at jacamo.infra.JaCaMoLauncher.main(JaCaMoLauncher.java:97)

[Include] as2j: error parsing "jar:file:/Users/ASUS/workspace/jacamo/build/libs/jacamo-0.7-SNAPSHOT.jar!/templates/common-moise.asl"
jason.asSyntax.parser.ParseException: Encountered ":" at line 16, column 7.
Was expecting one of:
    <VAR> ...
    "true" ...
    "false" ...
    "not" ...
    "~" ...
    "begin" ...
    "end" ...
    <NUMBER> ...
    <STRING> ...
    <ATOM> ...
    <UNNAMEDVAR> ...
    "+" ...
    "-" ...
    "(" ...
    
	at jason.asSyntax.parser.as2j.generateParseException(as2j.java:2785)
	at jason.asSyntax.parser.as2j.jj_consume_token(as2j.java:2665)
	at jason.asSyntax.parser.as2j.log_expr_factor(as2j.java:1221)
	at jason.asSyntax.parser.as2j.log_expr_trm(as2j.java:1180)
	at jason.asSyntax.parser.as2j.log_expr(as2j.java:1163)
	at jason.asSyntax.parser.as2j.plan(as2j.java:358)
	at jason.asSyntax.parser.as2j.agent(as2j.java:188)
	at jason.asSyntax.directives.Include.process(Include.java:81)
	at jason.asSyntax.directives.DirectiveProcessor.process(DirectiveProcessor.java:66)
	at jason.asSyntax.parser.as2j.directive(as2j.java:277)
	at jason.asSyntax.parser.as2j.agent(as2j.java:237)
	at jason.asSyntax.directives.Include.process(Include.java:81)
	at jason.asSyntax.directives.DirectiveProcessor.process(DirectiveProcessor.java:66)
	at jason.asSyntax.parser.as2j.directive(as2j.java:277)
	at jason.asSyntax.parser.as2j.agent(as2j.java:237)
	at jason.asSemantics.Agent.parseAS(Agent.java:431)
	at jason.asSemantics.Agent.parseAS(Agent.java:416)
	at jason.asSemantics.Agent.load(Agent.java:194)
	at jason.asSemantics.Agent.create(Agent.java:141)
	at jason.infra.centralised.CentralisedAgArch.createArchs(CentralisedAgArch.java:92)
	at jason.infra.centralised.RunCentralisedMAS.createAgs(RunCentralisedMAS.java:465)
	at jacamo.infra.JaCaMoLauncher.createAgs(JaCaMoLauncher.java:420)
	at jacamo.infra.JaCaMoLauncher.create(JaCaMoLauncher.java:240)
	at jacamo.infra.JaCaMoLauncher.main(JaCaMoLauncher.java:97)

[Include] as2j: error parsing "jar:file:/Users/ASUS/workspace/jacamo/build/libs/jacamo-0.7-SNAPSHOT.jar!/templates/common-moise.asl"
jason.asSyntax.parser.ParseException: Encountered ":" at line 16, column 7.
Was expecting one of:
    <VAR> ...
    "true" ...
    "false" ...
    "not" ...
    "~" ...
    "begin" ...
    "end" ...
    <NUMBER> ...
    <STRING> ...
    <ATOM> ...
    <UNNAMEDVAR> ...
    "+" ...
    "-" ...
    "(" ...
    
	at jason.asSyntax.parser.as2j.generateParseException(as2j.java:2785)
	at jason.asSyntax.parser.as2j.jj_consume_token(as2j.java:2665)
	at jason.asSyntax.parser.as2j.log_expr_factor(as2j.java:1221)
	at jason.asSyntax.parser.as2j.log_expr_trm(as2j.java:1180)
	at jason.asSyntax.parser.as2j.log_expr(as2j.java:1163)
	at jason.asSyntax.parser.as2j.plan(as2j.java:358)
	at jason.asSyntax.parser.as2j.agent(as2j.java:188)
	at jason.asSyntax.directives.Include.process(Include.java:81)
	at jason.asSyntax.directives.DirectiveProcessor.process(DirectiveProcessor.java:66)
	at jason.asSyntax.parser.as2j.directive(as2j.java:277)
	at jason.asSyntax.parser.as2j.agent(as2j.java:237)
	at jason.asSyntax.directives.Include.process(Include.java:81)
	at jason.asSyntax.directives.DirectiveProcessor.process(DirectiveProcessor.java:66)
	at jason.asSyntax.parser.as2j.directive(as2j.java:277)
	at jason.asSyntax.parser.as2j.agent(as2j.java:237)
	at jason.asSemantics.Agent.parseAS(Agent.java:431)
	at jason.asSemantics.Agent.parseAS(Agent.java:416)
	at jason.asSemantics.Agent.load(Agent.java:194)
	at jason.asSemantics.Agent.create(Agent.java:141)
	at jason.infra.centralised.CentralisedAgArch.createArchs(CentralisedAgArch.java:92)
	at jason.infra.centralised.RunCentralisedMAS.createAgs(RunCentralisedMAS.java:465)
	at jacamo.infra.JaCaMoLauncher.createAgs(JaCaMoLauncher.java:420)
	at jacamo.infra.JaCaMoLauncher.create(JaCaMoLauncher.java:240)
	at jacamo.infra.JaCaMoLauncher.main(JaCaMoLauncher.java:97)

[Include] as2j: error parsing "jar:file:/Users/ASUS/workspace/jacamo/build/libs/jacamo-0.7-SNAPSHOT.jar!/templates/common-moise.asl"
jason.asSyntax.parser.ParseException: Encountered ":" at line 16, column 7.
Was expecting one of:
    <VAR> ...
    "true" ...
    "false" ...
    "not" ...
    "~" ...
    "begin" ...
    "end" ...
    <NUMBER> ...
    <STRING> ...
    <ATOM> ...
    <UNNAMEDVAR> ...
    "+" ...
    "-" ...
    "(" ...
    
	at jason.asSyntax.parser.as2j.generateParseException(as2j.java:2785)
	at jason.asSyntax.parser.as2j.jj_consume_token(as2j.java:2665)
	at jason.asSyntax.parser.as2j.log_expr_factor(as2j.java:1221)
	at jason.asSyntax.parser.as2j.log_expr_trm(as2j.java:1180)
	at jason.asSyntax.parser.as2j.log_expr(as2j.java:1163)
	at jason.asSyntax.parser.as2j.plan(as2j.java:358)
	at jason.asSyntax.parser.as2j.agent(as2j.java:188)
	at jason.asSyntax.directives.Include.process(Include.java:81)
	at jason.asSyntax.directives.DirectiveProcessor.process(DirectiveProcessor.java:66)
	at jason.asSyntax.parser.as2j.directive(as2j.java:277)
	at jason.asSyntax.parser.as2j.agent(as2j.java:237)
	at jason.asSyntax.directives.Include.process(Include.java:81)
	at jason.asSyntax.directives.DirectiveProcessor.process(DirectiveProcessor.java:66)
	at jason.asSyntax.parser.as2j.directive(as2j.java:277)
	at jason.asSyntax.parser.as2j.agent(as2j.java:237)
	at jason.asSemantics.Agent.parseAS(Agent.java:431)
	at jason.asSemantics.Agent.parseAS(Agent.java:416)
	at jason.asSemantics.Agent.load(Agent.java:194)
	at jason.asSemantics.Agent.create(Agent.java:141)
	at jason.infra.centralised.CentralisedAgArch.createArchs(CentralisedAgArch.java:92)
	at jason.infra.centralised.RunCentralisedMAS.createAgs(RunCentralisedMAS.java:465)
	at jacamo.infra.JaCaMoLauncher.createAgs(JaCaMoLauncher.java:420)
	at jacamo.infra.JaCaMoLauncher.create(JaCaMoLauncher.java:240)
	at jacamo.infra.JaCaMoLauncher.main(JaCaMoLauncher.java:97)

[Include] as2j: error parsing "jar:file:/Users/ASUS/workspace/jacamo/build/libs/jacamo-0.7-SNAPSHOT.jar!/templates/common-moise.asl"
jason.asSyntax.parser.ParseException: Encountered ":" at line 16, column 7.
Was expecting one of:
    <VAR> ...
    "true" ...
    "false" ...
    "not" ...
    "~" ...
    "begin" ...
    "end" ...
    <NUMBER> ...
    <STRING> ...
    <ATOM> ...
    <UNNAMEDVAR> ...
    "+" ...
    "-" ...
    "(" ...
    
	at jason.asSyntax.parser.as2j.generateParseException(as2j.java:2785)
	at jason.asSyntax.parser.as2j.jj_consume_token(as2j.java:2665)
	at jason.asSyntax.parser.as2j.log_expr_factor(as2j.java:1221)
	at jason.asSyntax.parser.as2j.log_expr_trm(as2j.java:1180)
	at jason.asSyntax.parser.as2j.log_expr(as2j.java:1163)
	at jason.asSyntax.parser.as2j.plan(as2j.java:358)
	at jason.asSyntax.parser.as2j.agent(as2j.java:188)
	at jason.asSyntax.directives.Include.process(Include.java:81)
	at jason.asSyntax.directives.DirectiveProcessor.process(DirectiveProcessor.java:66)
	at jason.asSyntax.parser.as2j.directive(as2j.java:277)
	at jason.asSyntax.parser.as2j.agent(as2j.java:237)
	at jason.asSyntax.directives.Include.process(Include.java:81)
	at jason.asSyntax.directives.DirectiveProcessor.process(DirectiveProcessor.java:66)
	at jason.asSyntax.parser.as2j.directive(as2j.java:277)
	at jason.asSyntax.parser.as2j.agent(as2j.java:237)
	at jason.asSemantics.Agent.parseAS(Agent.java:431)
	at jason.asSemantics.Agent.parseAS(Agent.java:416)
	at jason.asSemantics.Agent.load(Agent.java:194)
	at jason.asSemantics.Agent.create(Agent.java:141)
	at jason.infra.centralised.CentralisedAgArch.createArchs(CentralisedAgArch.java:92)
	at jason.infra.centralised.RunCentralisedMAS.createAgs(RunCentralisedMAS.java:465)
	at jacamo.infra.JaCaMoLauncher.createAgs(JaCaMoLauncher.java:420)
	at jacamo.infra.JaCaMoLauncher.create(JaCaMoLauncher.java:240)
	at jacamo.infra.JaCaMoLauncher.main(JaCaMoLauncher.java:97)

[Include] as2j: error parsing "jar:file:/Users/ASUS/workspace/jacamo/build/libs/jacamo-0.7-SNAPSHOT.jar!/templates/common-moise.asl"
jason.asSyntax.parser.ParseException: Encountered ":" at line 16, column 7.
Was expecting one of:
    <VAR> ...
    "true" ...
    "false" ...
    "not" ...
    "~" ...
    "begin" ...
    "end" ...
    <NUMBER> ...
    <STRING> ...
    <ATOM> ...
    <UNNAMEDVAR> ...
    "+" ...
    "-" ...
    "(" ...
    
	at jason.asSyntax.parser.as2j.generateParseException(as2j.java:2785)
	at jason.asSyntax.parser.as2j.jj_consume_token(as2j.java:2665)
	at jason.asSyntax.parser.as2j.log_expr_factor(as2j.java:1221)
	at jason.asSyntax.parser.as2j.log_expr_trm(as2j.java:1180)
	at jason.asSyntax.parser.as2j.log_expr(as2j.java:1163)
	at jason.asSyntax.parser.as2j.plan(as2j.java:358)
	at jason.asSyntax.parser.as2j.agent(as2j.java:188)
	at jason.asSyntax.directives.Include.process(Include.java:81)
	at jason.asSyntax.directives.DirectiveProcessor.process(DirectiveProcessor.java:66)
	at jason.asSyntax.parser.as2j.directive(as2j.java:277)
	at jason.asSyntax.parser.as2j.agent(as2j.java:237)
	at jason.asSyntax.directives.Include.process(Include.java:81)
	at jason.asSyntax.directives.DirectiveProcessor.process(DirectiveProcessor.java:66)
	at jason.asSyntax.parser.as2j.directive(as2j.java:277)
	at jason.asSyntax.parser.as2j.agent(as2j.java:237)
	at jason.asSemantics.Agent.parseAS(Agent.java:431)
	at jason.asSemantics.Agent.parseAS(Agent.java:416)
	at jason.asSemantics.Agent.load(Agent.java:194)
	at jason.asSemantics.Agent.create(Agent.java:141)
	at jason.infra.centralised.CentralisedAgArch.createArchs(CentralisedAgArch.java:92)
	at jason.infra.centralised.RunCentralisedMAS.createAgs(RunCentralisedMAS.java:465)
	at jacamo.infra.JaCaMoLauncher.createAgs(JaCaMoLauncher.java:420)
	at jacamo.infra.JaCaMoLauncher.create(JaCaMoLauncher.java:240)
	at jacamo.infra.JaCaMoLauncher.main(JaCaMoLauncher.java:97)

[Include] as2j: error parsing "jar:file:/Users/ASUS/workspace/jacamo/build/libs/jacamo-0.7-SNAPSHOT.jar!/templates/common-moise.asl"
jason.asSyntax.parser.ParseException: Encountered ":" at line 16, column 7.
Was expecting one of:
    <VAR> ...
    "true" ...
    "false" ...
    "not" ...
    "~" ...
    "begin" ...
    "end" ...
    <NUMBER> ...
    <STRING> ...
    <ATOM> ...
    <UNNAMEDVAR> ...
    "+" ...
    "-" ...
    "(" ...
    
	at jason.asSyntax.parser.as2j.generateParseException(as2j.java:2785)
	at jason.asSyntax.parser.as2j.jj_consume_token(as2j.java:2665)
	at jason.asSyntax.parser.as2j.log_expr_factor(as2j.java:1221)
	at jason.asSyntax.parser.as2j.log_expr_trm(as2j.java:1180)
	at jason.asSyntax.parser.as2j.log_expr(as2j.java:1163)
	at jason.asSyntax.parser.as2j.plan(as2j.java:358)
	at jason.asSyntax.parser.as2j.agent(as2j.java:188)
	at jason.asSyntax.directives.Include.process(Include.java:81)
	at jason.asSyntax.directives.DirectiveProcessor.process(DirectiveProcessor.java:66)
	at jason.asSyntax.parser.as2j.directive(as2j.java:277)
	at jason.asSyntax.parser.as2j.agent(as2j.java:237)
	at jason.asSyntax.directives.Include.process(Include.java:81)
	at jason.asSyntax.directives.DirectiveProcessor.process(DirectiveProcessor.java:66)
	at jason.asSyntax.parser.as2j.directive(as2j.java:277)
	at jason.asSyntax.parser.as2j.agent(as2j.java:237)
	at jason.asSemantics.Agent.parseAS(Agent.java:431)
	at jason.asSemantics.Agent.parseAS(Agent.java:416)
	at jason.asSemantics.Agent.load(Agent.java:194)
	at jason.asSemantics.Agent.create(Agent.java:141)
	at jason.infra.centralised.CentralisedAgArch.createArchs(CentralisedAgArch.java:92)
	at jason.infra.centralised.RunCentralisedMAS.createAgs(RunCentralisedMAS.java:465)
	at jacamo.infra.JaCaMoLauncher.createAgs(JaCaMoLauncher.java:420)
	at jacamo.infra.JaCaMoLauncher.create(JaCaMoLauncher.java:240)
	at jacamo.infra.JaCaMoLauncher.main(JaCaMoLauncher.java:97)

[Include] as2j: error parsing "jar:file:/Users/ASUS/workspace/jacamo/build/libs/jacamo-0.7-SNAPSHOT.jar!/templates/common-moise.asl"
jason.asSyntax.parser.ParseException: Encountered ":" at line 16, column 7.
Was expecting one of:
    <VAR> ...
    "true" ...
    "false" ...
    "not" ...
    "~" ...
    "begin" ...
    "end" ...
    <NUMBER> ...
    <STRING> ...
    <ATOM> ...
    <UNNAMEDVAR> ...
    "+" ...
    "-" ...
    "(" ...
    
	at jason.asSyntax.parser.as2j.generateParseException(as2j.java:2785)
	at jason.asSyntax.parser.as2j.jj_consume_token(as2j.java:2665)
	at jason.asSyntax.parser.as2j.log_expr_factor(as2j.java:1221)
	at jason.asSyntax.parser.as2j.log_expr_trm(as2j.java:1180)
	at jason.asSyntax.parser.as2j.log_expr(as2j.java:1163)
	at jason.asSyntax.parser.as2j.plan(as2j.java:358)
	at jason.asSyntax.parser.as2j.agent(as2j.java:188)
	at jason.asSyntax.directives.Include.process(Include.java:81)
	at jason.asSyntax.directives.DirectiveProcessor.process(DirectiveProcessor.java:66)
	at jason.asSyntax.parser.as2j.directive(as2j.java:277)
	at jason.asSyntax.parser.as2j.agent(as2j.java:237)
	at jason.asSyntax.directives.Include.process(Include.java:81)
	at jason.asSyntax.directives.DirectiveProcessor.process(DirectiveProcessor.java:66)
	at jason.asSyntax.parser.as2j.directive(as2j.java:277)
	at jason.asSyntax.parser.as2j.agent(as2j.java:237)
	at jason.asSemantics.Agent.parseAS(Agent.java:431)
	at jason.asSemantics.Agent.parseAS(Agent.java:416)
	at jason.asSemantics.Agent.load(Agent.java:194)
	at jason.asSemantics.Agent.create(Agent.java:141)
	at jason.infra.centralised.CentralisedAgArch.createArchs(CentralisedAgArch.java:92)
	at jason.infra.centralised.RunCentralisedMAS.createAgs(RunCentralisedMAS.java:465)
	at jacamo.infra.JaCaMoLauncher.createAgs(JaCaMoLauncher.java:420)
	at jacamo.infra.JaCaMoLauncher.create(JaCaMoLauncher.java:240)
	at jacamo.infra.JaCaMoLauncher.main(JaCaMoLauncher.java:97)

[Include] as2j: error parsing "jar:file:/Users/ASUS/workspace/jacamo/build/libs/jacamo-0.7-SNAPSHOT.jar!/templates/common-moise.asl"
jason.asSyntax.parser.ParseException: Encountered ":" at line 16, column 7.
Was expecting one of:
    <VAR> ...
    "true" ...
    "false" ...
    "not" ...
    "~" ...
    "begin" ...
    "end" ...
    <NUMBER> ...
    <STRING> ...
    <ATOM> ...
    <UNNAMEDVAR> ...
    "+" ...
    "-" ...
    "(" ...
    
	at jason.asSyntax.parser.as2j.generateParseException(as2j.java:2785)
	at jason.asSyntax.parser.as2j.jj_consume_token(as2j.java:2665)
	at jason.asSyntax.parser.as2j.log_expr_factor(as2j.java:1221)
	at jason.asSyntax.parser.as2j.log_expr_trm(as2j.java:1180)
	at jason.asSyntax.parser.as2j.log_expr(as2j.java:1163)
	at jason.asSyntax.parser.as2j.plan(as2j.java:358)
	at jason.asSyntax.parser.as2j.agent(as2j.java:188)
	at jason.asSyntax.directives.Include.process(Include.java:81)
	at jason.asSyntax.directives.DirectiveProcessor.process(DirectiveProcessor.java:66)
	at jason.asSyntax.parser.as2j.directive(as2j.java:277)
	at jason.asSyntax.parser.as2j.agent(as2j.java:237)
	at jason.asSyntax.directives.Include.process(Include.java:81)
	at jason.asSyntax.directives.DirectiveProcessor.process(DirectiveProcessor.java:66)
	at jason.asSyntax.parser.as2j.directive(as2j.java:277)
	at jason.asSyntax.parser.as2j.agent(as2j.java:237)
	at jason.asSemantics.Agent.parseAS(Agent.java:431)
	at jason.asSemantics.Agent.parseAS(Agent.java:416)
	at jason.asSemantics.Agent.load(Agent.java:194)
	at jason.asSemantics.Agent.create(Agent.java:141)
	at jason.infra.centralised.CentralisedAgArch.createArchs(CentralisedAgArch.java:92)
	at jason.infra.centralised.RunCentralisedMAS.createAgs(RunCentralisedMAS.java:465)
	at jacamo.infra.JaCaMoLauncher.createAgs(JaCaMoLauncher.java:420)
	at jacamo.infra.JaCaMoLauncher.create(JaCaMoLauncher.java:240)
	at jacamo.infra.JaCaMoLauncher.main(JaCaMoLauncher.java:97)

[Include] as2j: error parsing "jar:file:/Users/ASUS/workspace/jacamo/build/libs/jacamo-0.7-SNAPSHOT.jar!/templates/common-moise.asl"
jason.asSyntax.parser.ParseException: Encountered ":" at line 16, column 7.
Was expecting one of:
    <VAR> ...
    "true" ...
    "false" ...
    "not" ...
    "~" ...
    "begin" ...
    "end" ...
    <NUMBER> ...
    <STRING> ...
    <ATOM> ...
    <UNNAMEDVAR> ...
    "+" ...
    "-" ...
    "(" ...
    
	at jason.asSyntax.parser.as2j.generateParseException(as2j.java:2785)
	at jason.asSyntax.parser.as2j.jj_consume_token(as2j.java:2665)
	at jason.asSyntax.parser.as2j.log_expr_factor(as2j.java:1221)
	at jason.asSyntax.parser.as2j.log_expr_trm(as2j.java:1180)
	at jason.asSyntax.parser.as2j.log_expr(as2j.java:1163)
	at jason.asSyntax.parser.as2j.plan(as2j.java:358)
	at jason.asSyntax.parser.as2j.agent(as2j.java:188)
	at jason.asSyntax.directives.Include.process(Include.java:81)
	at jason.asSyntax.directives.DirectiveProcessor.process(DirectiveProcessor.java:66)
	at jason.asSyntax.parser.as2j.directive(as2j.java:277)
	at jason.asSyntax.parser.as2j.agent(as2j.java:237)
	at jason.asSyntax.directives.Include.process(Include.java:81)
	at jason.asSyntax.directives.DirectiveProcessor.process(DirectiveProcessor.java:66)
	at jason.asSyntax.parser.as2j.directive(as2j.java:277)
	at jason.asSyntax.parser.as2j.agent(as2j.java:237)
	at jason.asSemantics.Agent.parseAS(Agent.java:431)
	at jason.asSemantics.Agent.parseAS(Agent.java:416)
	at jason.asSemantics.Agent.load(Agent.java:194)
	at jason.asSemantics.Agent.create(Agent.java:141)
	at jason.infra.centralised.CentralisedAgArch.createArchs(CentralisedAgArch.java:92)
	at jason.infra.centralised.RunCentralisedMAS.createAgs(RunCentralisedMAS.java:465)
	at jacamo.infra.JaCaMoLauncher.createAgs(JaCaMoLauncher.java:420)
	at jacamo.infra.JaCaMoLauncher.create(JaCaMoLauncher.java:240)
	at jacamo.infra.JaCaMoLauncher.main(JaCaMoLauncher.java:97)

[Include] as2j: error parsing "jar:file:/Users/ASUS/workspace/jacamo/build/libs/jacamo-0.7-SNAPSHOT.jar!/templates/common-moise.asl"
jason.asSyntax.parser.ParseException: Encountered ":" at line 16, column 7.
Was expecting one of:
    <VAR> ...
    "true" ...
    "false" ...
    "not" ...
    "~" ...
    "begin" ...
    "end" ...
    <NUMBER> ...
    <STRING> ...
    <ATOM> ...
    <UNNAMEDVAR> ...
    "+" ...
    "-" ...
    "(" ...
    
	at jason.asSyntax.parser.as2j.generateParseException(as2j.java:2785)
	at jason.asSyntax.parser.as2j.jj_consume_token(as2j.java:2665)
	at jason.asSyntax.parser.as2j.log_expr_factor(as2j.java:1221)
	at jason.asSyntax.parser.as2j.log_expr_trm(as2j.java:1180)
	at jason.asSyntax.parser.as2j.log_expr(as2j.java:1163)
	at jason.asSyntax.parser.as2j.plan(as2j.java:358)
	at jason.asSyntax.parser.as2j.agent(as2j.java:188)
	at jason.asSyntax.directives.Include.process(Include.java:81)
	at jason.asSyntax.directives.DirectiveProcessor.process(DirectiveProcessor.java:66)
	at jason.asSyntax.parser.as2j.directive(as2j.java:277)
	at jason.asSyntax.parser.as2j.agent(as2j.java:237)
	at jason.asSyntax.directives.Include.process(Include.java:81)
	at jason.asSyntax.directives.DirectiveProcessor.process(DirectiveProcessor.java:66)
	at jason.asSyntax.parser.as2j.directive(as2j.java:277)
	at jason.asSyntax.parser.as2j.agent(as2j.java:237)
	at jason.asSemantics.Agent.parseAS(Agent.java:431)
	at jason.asSemantics.Agent.parseAS(Agent.java:416)
	at jason.asSemantics.Agent.load(Agent.java:194)
	at jason.asSemantics.Agent.create(Agent.java:141)
	at jason.infra.centralised.CentralisedAgArch.createArchs(CentralisedAgArch.java:92)
	at jason.infra.centralised.RunCentralisedMAS.createAgs(RunCentralisedMAS.java:465)
	at jacamo.infra.JaCaMoLauncher.createAgs(JaCaMoLauncher.java:420)
	at jacamo.infra.JaCaMoLauncher.create(JaCaMoLauncher.java:240)
	at jacamo.infra.JaCaMoLauncher.main(JaCaMoLauncher.java:97)

[Include] as2j: error parsing "jar:file:/Users/ASUS/workspace/jacamo/build/libs/jacamo-0.7-SNAPSHOT.jar!/templates/common-moise.asl"
jason.asSyntax.parser.ParseException: Encountered ":" at line 16, column 7.
Was expecting one of:
    <VAR> ...
    "true" ...
    "false" ...
    "not" ...
    "~" ...
    "begin" ...
    "end" ...
    <NUMBER> ...
    <STRING> ...
    <ATOM> ...
    <UNNAMEDVAR> ...
    "+" ...
    "-" ...
    "(" ...
    
	at jason.asSyntax.parser.as2j.generateParseException(as2j.java:2785)
	at jason.asSyntax.parser.as2j.jj_consume_token(as2j.java:2665)
	at jason.asSyntax.parser.as2j.log_expr_factor(as2j.java:1221)
	at jason.asSyntax.parser.as2j.log_expr_trm(as2j.java:1180)
	at jason.asSyntax.parser.as2j.log_expr(as2j.java:1163)
	at jason.asSyntax.parser.as2j.plan(as2j.java:358)
	at jason.asSyntax.parser.as2j.agent(as2j.java:188)
	at jason.asSyntax.directives.Include.process(Include.java:81)
	at jason.asSyntax.directives.DirectiveProcessor.process(DirectiveProcessor.java:66)
	at jason.asSyntax.parser.as2j.directive(as2j.java:277)
	at jason.asSyntax.parser.as2j.agent(as2j.java:237)
	at jason.asSyntax.directives.Include.process(Include.java:81)
	at jason.asSyntax.directives.DirectiveProcessor.process(DirectiveProcessor.java:66)
	at jason.asSyntax.parser.as2j.directive(as2j.java:277)
	at jason.asSyntax.parser.as2j.agent(as2j.java:237)
	at jason.asSemantics.Agent.parseAS(Agent.java:431)
	at jason.asSemantics.Agent.parseAS(Agent.java:416)
	at jason.asSemantics.Agent.load(Agent.java:194)
	at jason.asSemantics.Agent.create(Agent.java:141)
	at jason.infra.centralised.CentralisedAgArch.createArchs(CentralisedAgArch.java:92)
	at jason.infra.centralised.RunCentralisedMAS.createAgs(RunCentralisedMAS.java:465)
	at jacamo.infra.JaCaMoLauncher.createAgs(JaCaMoLauncher.java:420)
	at jacamo.infra.JaCaMoLauncher.create(JaCaMoLauncher.java:240)
	at jacamo.infra.JaCaMoLauncher.main(JaCaMoLauncher.java:97)

[Include] as2j: error parsing "jar:file:/Users/ASUS/workspace/jacamo/build/libs/jacamo-0.7-SNAPSHOT.jar!/templates/common-moise.asl"
jason.asSyntax.parser.ParseException: Encountered ":" at line 16, column 7.
Was expecting one of:
    <VAR> ...
    "true" ...
    "false" ...
    "not" ...
    "~" ...
    "begin" ...
    "end" ...
    <NUMBER> ...
    <STRING> ...
    <ATOM> ...
    <UNNAMEDVAR> ...
    "+" ...
    "-" ...
    "(" ...
    
	at jason.asSyntax.parser.as2j.generateParseException(as2j.java:2785)
	at jason.asSyntax.parser.as2j.jj_consume_token(as2j.java:2665)
	at jason.asSyntax.parser.as2j.log_expr_factor(as2j.java:1221)
	at jason.asSyntax.parser.as2j.log_expr_trm(as2j.java:1180)
	at jason.asSyntax.parser.as2j.log_expr(as2j.java:1163)
	at jason.asSyntax.parser.as2j.plan(as2j.java:358)
	at jason.asSyntax.parser.as2j.agent(as2j.java:188)
	at jason.asSyntax.directives.Include.process(Include.java:81)
	at jason.asSyntax.directives.DirectiveProcessor.process(DirectiveProcessor.java:66)
	at jason.asSyntax.parser.as2j.directive(as2j.java:277)
	at jason.asSyntax.parser.as2j.agent(as2j.java:237)
	at jason.asSyntax.directives.Include.process(Include.java:81)
	at jason.asSyntax.directives.DirectiveProcessor.process(DirectiveProcessor.java:66)
	at jason.asSyntax.parser.as2j.directive(as2j.java:277)
	at jason.asSyntax.parser.as2j.agent(as2j.java:237)
	at jason.asSemantics.Agent.parseAS(Agent.java:431)
	at jason.asSemantics.Agent.parseAS(Agent.java:416)
	at jason.asSemantics.Agent.load(Agent.java:194)
	at jason.asSemantics.Agent.create(Agent.java:141)
	at jason.infra.centralised.CentralisedAgArch.createArchs(CentralisedAgArch.java:92)
	at jason.infra.centralised.RunCentralisedMAS.createAgs(RunCentralisedMAS.java:465)
	at jacamo.infra.JaCaMoLauncher.createAgs(JaCaMoLauncher.java:420)
	at jacamo.infra.JaCaMoLauncher.create(JaCaMoLauncher.java:240)
	at jacamo.infra.JaCaMoLauncher.main(JaCaMoLauncher.java:97)

[Include] as2j: error parsing "jar:file:/Users/ASUS/workspace/jacamo/build/libs/jacamo-0.7-SNAPSHOT.jar!/templates/common-moise.asl"
jason.asSyntax.parser.ParseException: Encountered ":" at line 16, column 7.
Was expecting one of:
    <VAR> ...
    "true" ...
    "false" ...
    "not" ...
    "~" ...
    "begin" ...
    "end" ...
    <NUMBER> ...
    <STRING> ...
    <ATOM> ...
    <UNNAMEDVAR> ...
    "+" ...
    "-" ...
    "(" ...
    
	at jason.asSyntax.parser.as2j.generateParseException(as2j.java:2785)
	at jason.asSyntax.parser.as2j.jj_consume_token(as2j.java:2665)
	at jason.asSyntax.parser.as2j.log_expr_factor(as2j.java:1221)
	at jason.asSyntax.parser.as2j.log_expr_trm(as2j.java:1180)
	at jason.asSyntax.parser.as2j.log_expr(as2j.java:1163)
	at jason.asSyntax.parser.as2j.plan(as2j.java:358)
	at jason.asSyntax.parser.as2j.agent(as2j.java:188)
	at jason.asSyntax.directives.Include.process(Include.java:81)
	at jason.asSyntax.directives.DirectiveProcessor.process(DirectiveProcessor.java:66)
	at jason.asSyntax.parser.as2j.directive(as2j.java:277)
	at jason.asSyntax.parser.as2j.agent(as2j.java:237)
	at jason.asSyntax.directives.Include.process(Include.java:81)
	at jason.asSyntax.directives.DirectiveProcessor.process(DirectiveProcessor.java:66)
	at jason.asSyntax.parser.as2j.directive(as2j.java:277)
	at jason.asSyntax.parser.as2j.agent(as2j.java:237)
	at jason.asSemantics.Agent.parseAS(Agent.java:431)
	at jason.asSemantics.Agent.parseAS(Agent.java:416)
	at jason.asSemantics.Agent.load(Agent.java:194)
	at jason.asSemantics.Agent.create(Agent.java:141)
	at jason.infra.centralised.CentralisedAgArch.createArchs(CentralisedAgArch.java:92)
	at jason.infra.centralised.RunCentralisedMAS.createAgs(RunCentralisedMAS.java:465)
	at jacamo.infra.JaCaMoLauncher.createAgs(JaCaMoLauncher.java:420)
	at jacamo.infra.JaCaMoLauncher.create(JaCaMoLauncher.java:240)
	at jacamo.infra.JaCaMoLauncher.main(JaCaMoLauncher.java:97)

[Include] as2j: error parsing "jar:file:/Users/ASUS/workspace/jacamo/build/libs/jacamo-0.7-SNAPSHOT.jar!/templates/common-moise.asl"
jason.asSyntax.parser.ParseException: Encountered ":" at line 16, column 7.
Was expecting one of:
    <VAR> ...
    "true" ...
    "false" ...
    "not" ...
    "~" ...
    "begin" ...
    "end" ...
    <NUMBER> ...
    <STRING> ...
    <ATOM> ...
    <UNNAMEDVAR> ...
    "+" ...
    "-" ...
    "(" ...
    
	at jason.asSyntax.parser.as2j.generateParseException(as2j.java:2785)
	at jason.asSyntax.parser.as2j.jj_consume_token(as2j.java:2665)
	at jason.asSyntax.parser.as2j.log_expr_factor(as2j.java:1221)
	at jason.asSyntax.parser.as2j.log_expr_trm(as2j.java:1180)
	at jason.asSyntax.parser.as2j.log_expr(as2j.java:1163)
	at jason.asSyntax.parser.as2j.plan(as2j.java:358)
	at jason.asSyntax.parser.as2j.agent(as2j.java:188)
	at jason.asSyntax.directives.Include.process(Include.java:81)
	at jason.asSyntax.directives.DirectiveProcessor.process(DirectiveProcessor.java:66)
	at jason.asSyntax.parser.as2j.directive(as2j.java:277)
	at jason.asSyntax.parser.as2j.agent(as2j.java:237)
	at jason.asSyntax.directives.Include.process(Include.java:81)
	at jason.asSyntax.directives.DirectiveProcessor.process(DirectiveProcessor.java:66)
	at jason.asSyntax.parser.as2j.directive(as2j.java:277)
	at jason.asSyntax.parser.as2j.agent(as2j.java:237)
	at jason.asSemantics.Agent.parseAS(Agent.java:431)
	at jason.asSemantics.Agent.parseAS(Agent.java:416)
	at jason.asSemantics.Agent.load(Agent.java:194)
	at jason.asSemantics.Agent.create(Agent.java:141)
	at jason.infra.centralised.CentralisedAgArch.createArchs(CentralisedAgArch.java:92)
	at jason.infra.centralised.RunCentralisedMAS.createAgs(RunCentralisedMAS.java:465)
	at jacamo.infra.JaCaMoLauncher.createAgs(JaCaMoLauncher.java:420)
	at jacamo.infra.JaCaMoLauncher.create(JaCaMoLauncher.java:240)
	at jacamo.infra.JaCaMoLauncher.main(JaCaMoLauncher.java:97)

[Include] as2j: error parsing "jar:file:/Users/ASUS/workspace/jacamo/build/libs/jacamo-0.7-SNAPSHOT.jar!/templates/common-moise.asl"
jason.asSyntax.parser.ParseException: Encountered ":" at line 16, column 7.
Was expecting one of:
    <VAR> ...
    "true" ...
    "false" ...
    "not" ...
    "~" ...
    "begin" ...
    "end" ...
    <NUMBER> ...
    <STRING> ...
    <ATOM> ...
    <UNNAMEDVAR> ...
    "+" ...
    "-" ...
    "(" ...
    
	at jason.asSyntax.parser.as2j.generateParseException(as2j.java:2785)
	at jason.asSyntax.parser.as2j.jj_consume_token(as2j.java:2665)
	at jason.asSyntax.parser.as2j.log_expr_factor(as2j.java:1221)
	at jason.asSyntax.parser.as2j.log_expr_trm(as2j.java:1180)
	at jason.asSyntax.parser.as2j.log_expr(as2j.java:1163)
	at jason.asSyntax.parser.as2j.plan(as2j.java:358)
	at jason.asSyntax.parser.as2j.agent(as2j.java:188)
	at jason.asSyntax.directives.Include.process(Include.java:81)
	at jason.asSyntax.directives.DirectiveProcessor.process(DirectiveProcessor.java:66)
	at jason.asSyntax.parser.as2j.directive(as2j.java:277)
	at jason.asSyntax.parser.as2j.agent(as2j.java:237)
	at jason.asSyntax.directives.Include.process(Include.java:81)
	at jason.asSyntax.directives.DirectiveProcessor.process(DirectiveProcessor.java:66)
	at jason.asSyntax.parser.as2j.directive(as2j.java:277)
	at jason.asSyntax.parser.as2j.agent(as2j.java:237)
	at jason.asSemantics.Agent.parseAS(Agent.java:431)
	at jason.asSemantics.Agent.parseAS(Agent.java:416)
	at jason.asSemantics.Agent.load(Agent.java:194)
	at jason.asSemantics.Agent.create(Agent.java:141)
	at jason.infra.centralised.CentralisedAgArch.createArchs(CentralisedAgArch.java:92)
	at jason.infra.centralised.RunCentralisedMAS.createAgs(RunCentralisedMAS.java:465)
	at jacamo.infra.JaCaMoLauncher.createAgs(JaCaMoLauncher.java:420)
	at jacamo.infra.JaCaMoLauncher.create(JaCaMoLauncher.java:240)
	at jacamo.infra.JaCaMoLauncher.main(JaCaMoLauncher.java:97)

[Include] as2j: error parsing "jar:file:/Users/ASUS/workspace/jacamo/build/libs/jacamo-0.7-SNAPSHOT.jar!/templates/common-moise.asl"
jason.asSyntax.parser.ParseException: Encountered ":" at line 16, column 7.
Was expecting one of:
    <VAR> ...
    "true" ...
    "false" ...
    "not" ...
    "~" ...
    "begin" ...
    "end" ...
    <NUMBER> ...
    <STRING> ...
    <ATOM> ...
    <UNNAMEDVAR> ...
    "+" ...
    "-" ...
    "(" ...
    
	at jason.asSyntax.parser.as2j.generateParseException(as2j.java:2785)
	at jason.asSyntax.parser.as2j.jj_consume_token(as2j.java:2665)
	at jason.asSyntax.parser.as2j.log_expr_factor(as2j.java:1221)
	at jason.asSyntax.parser.as2j.log_expr_trm(as2j.java:1180)
	at jason.asSyntax.parser.as2j.log_expr(as2j.java:1163)
	at jason.asSyntax.parser.as2j.plan(as2j.java:358)
	at jason.asSyntax.parser.as2j.agent(as2j.java:188)
	at jason.asSyntax.directives.Include.process(Include.java:81)
	at jason.asSyntax.directives.DirectiveProcessor.process(DirectiveProcessor.java:66)
	at jason.asSyntax.parser.as2j.directive(as2j.java:277)
	at jason.asSyntax.parser.as2j.agent(as2j.java:237)
	at jason.asSyntax.directives.Include.process(Include.java:81)
	at jason.asSyntax.directives.DirectiveProcessor.process(DirectiveProcessor.java:66)
	at jason.asSyntax.parser.as2j.directive(as2j.java:277)
	at jason.asSyntax.parser.as2j.agent(as2j.java:237)
	at jason.asSemantics.Agent.parseAS(Agent.java:431)
	at jason.asSemantics.Agent.parseAS(Agent.java:416)
	at jason.asSemantics.Agent.load(Agent.java:194)
	at jason.asSemantics.Agent.create(Agent.java:141)
	at jason.infra.centralised.CentralisedAgArch.createArchs(CentralisedAgArch.java:92)
	at jason.infra.centralised.RunCentralisedMAS.createAgs(RunCentralisedMAS.java:465)
	at jacamo.infra.JaCaMoLauncher.createAgs(JaCaMoLauncher.java:420)
	at jacamo.infra.JaCaMoLauncher.create(JaCaMoLauncher.java:240)
	at jacamo.infra.JaCaMoLauncher.main(JaCaMoLauncher.java:97)

[Include] as2j: error parsing "jar:file:/Users/ASUS/workspace/jacamo/build/libs/jacamo-0.7-SNAPSHOT.jar!/templates/common-moise.asl"
jason.asSyntax.parser.ParseException: Encountered ":" at line 16, column 7.
Was expecting one of:
    <VAR> ...
    "true" ...
    "false" ...
    "not" ...
    "~" ...
    "begin" ...
    "end" ...
    <NUMBER> ...
    <STRING> ...
    <ATOM> ...
    <UNNAMEDVAR> ...
    "+" ...
    "-" ...
    "(" ...
    
	at jason.asSyntax.parser.as2j.generateParseException(as2j.java:2785)
	at jason.asSyntax.parser.as2j.jj_consume_token(as2j.java:2665)
	at jason.asSyntax.parser.as2j.log_expr_factor(as2j.java:1221)
	at jason.asSyntax.parser.as2j.log_expr_trm(as2j.java:1180)
	at jason.asSyntax.parser.as2j.log_expr(as2j.java:1163)
	at jason.asSyntax.parser.as2j.plan(as2j.java:358)
	at jason.asSyntax.parser.as2j.agent(as2j.java:188)
	at jason.asSyntax.directives.Include.process(Include.java:81)
	at jason.asSyntax.directives.DirectiveProcessor.process(DirectiveProcessor.java:66)
	at jason.asSyntax.parser.as2j.directive(as2j.java:277)
	at jason.asSyntax.parser.as2j.agent(as2j.java:237)
	at jason.asSyntax.directives.Include.process(Include.java:81)
	at jason.asSyntax.directives.DirectiveProcessor.process(DirectiveProcessor.java:66)
	at jason.asSyntax.parser.as2j.directive(as2j.java:277)
	at jason.asSyntax.parser.as2j.agent(as2j.java:237)
	at jason.asSemantics.Agent.parseAS(Agent.java:431)
	at jason.asSemantics.Agent.parseAS(Agent.java:416)
	at jason.asSemantics.Agent.load(Agent.java:194)
	at jason.asSemantics.Agent.create(Agent.java:141)
	at jason.infra.centralised.CentralisedAgArch.createArchs(CentralisedAgArch.java:92)
	at jason.infra.centralised.RunCentralisedMAS.createAgs(RunCentralisedMAS.java:465)
	at jacamo.infra.JaCaMoLauncher.createAgs(JaCaMoLauncher.java:420)
	at jacamo.infra.JaCaMoLauncher.create(JaCaMoLauncher.java:240)
	at jacamo.infra.JaCaMoLauncher.main(JaCaMoLauncher.java:97)

[Include] as2j: error parsing "jar:file:/Users/ASUS/workspace/jacamo/build/libs/jacamo-0.7-SNAPSHOT.jar!/templates/common-moise.asl"
jason.asSyntax.parser.ParseException: Encountered ":" at line 16, column 7.
Was expecting one of:
    <VAR> ...
    "true" ...
    "false" ...
    "not" ...
    "~" ...
    "begin" ...
    "end" ...
    <NUMBER> ...
    <STRING> ...
    <ATOM> ...
    <UNNAMEDVAR> ...
    "+" ...
    "-" ...
    "(" ...
    
	at jason.asSyntax.parser.as2j.generateParseException(as2j.java:2785)
	at jason.asSyntax.parser.as2j.jj_consume_token(as2j.java:2665)
	at jason.asSyntax.parser.as2j.log_expr_factor(as2j.java:1221)
	at jason.asSyntax.parser.as2j.log_expr_trm(as2j.java:1180)
	at jason.asSyntax.parser.as2j.log_expr(as2j.java:1163)
	at jason.asSyntax.parser.as2j.plan(as2j.java:358)
	at jason.asSyntax.parser.as2j.agent(as2j.java:188)
	at jason.asSyntax.directives.Include.process(Include.java:81)
	at jason.asSyntax.directives.DirectiveProcessor.process(DirectiveProcessor.java:66)
	at jason.asSyntax.parser.as2j.directive(as2j.java:277)
	at jason.asSyntax.parser.as2j.agent(as2j.java:237)
	at jason.asSyntax.directives.Include.process(Include.java:81)
	at jason.asSyntax.directives.DirectiveProcessor.process(DirectiveProcessor.java:66)
	at jason.asSyntax.parser.as2j.directive(as2j.java:277)
	at jason.asSyntax.parser.as2j.agent(as2j.java:237)
	at jason.asSemantics.Agent.parseAS(Agent.java:431)
	at jason.asSemantics.Agent.parseAS(Agent.java:416)
	at jason.asSemantics.Agent.load(Agent.java:194)
	at jason.asSemantics.Agent.create(Agent.java:141)
	at jason.infra.centralised.CentralisedAgArch.createArchs(CentralisedAgArch.java:92)
	at jason.infra.centralised.RunCentralisedMAS.createAgs(RunCentralisedMAS.java:465)
	at jacamo.infra.JaCaMoLauncher.createAgs(JaCaMoLauncher.java:420)
	at jacamo.infra.JaCaMoLauncher.create(JaCaMoLauncher.java:240)
	at jacamo.infra.JaCaMoLauncher.main(JaCaMoLauncher.java:97)

[Include] as2j: error parsing "jar:file:/Users/ASUS/workspace/jacamo/build/libs/jacamo-0.7-SNAPSHOT.jar!/templates/common-moise.asl"
jason.asSyntax.parser.ParseException: Encountered ":" at line 16, column 7.
Was expecting one of:
    <VAR> ...
    "true" ...
    "false" ...
    "not" ...
    "~" ...
    "begin" ...
    "end" ...
    <NUMBER> ...
    <STRING> ...
    <ATOM> ...
    <UNNAMEDVAR> ...
    "+" ...
    "-" ...
    "(" ...
    
	at jason.asSyntax.parser.as2j.generateParseException(as2j.java:2785)
	at jason.asSyntax.parser.as2j.jj_consume_token(as2j.java:2665)
	at jason.asSyntax.parser.as2j.log_expr_factor(as2j.java:1221)
	at jason.asSyntax.parser.as2j.log_expr_trm(as2j.java:1180)
	at jason.asSyntax.parser.as2j.log_expr(as2j.java:1163)
	at jason.asSyntax.parser.as2j.plan(as2j.java:358)
	at jason.asSyntax.parser.as2j.agent(as2j.java:188)
	at jason.asSyntax.directives.Include.process(Include.java:81)
	at jason.asSyntax.directives.DirectiveProcessor.process(DirectiveProcessor.java:66)
	at jason.asSyntax.parser.as2j.directive(as2j.java:277)
	at jason.asSyntax.parser.as2j.agent(as2j.java:237)
	at jason.asSyntax.directives.Include.process(Include.java:81)
	at jason.asSyntax.directives.DirectiveProcessor.process(DirectiveProcessor.java:66)
	at jason.asSyntax.parser.as2j.directive(as2j.java:277)
	at jason.asSyntax.parser.as2j.agent(as2j.java:237)
	at jason.asSemantics.Agent.parseAS(Agent.java:431)
	at jason.asSemantics.Agent.parseAS(Agent.java:416)
	at jason.asSemantics.Agent.load(Agent.java:194)
	at jason.asSemantics.Agent.create(Agent.java:141)
	at jason.infra.centralised.CentralisedAgArch.createArchs(CentralisedAgArch.java:92)
	at jason.infra.centralised.RunCentralisedMAS.createAgs(RunCentralisedMAS.java:465)
	at jacamo.infra.JaCaMoLauncher.createAgs(JaCaMoLauncher.java:420)
	at jacamo.infra.JaCaMoLauncher.create(JaCaMoLauncher.java:240)
	at jacamo.infra.JaCaMoLauncher.main(JaCaMoLauncher.java:97)

[Include] as2j: error parsing "jar:file:/Users/ASUS/workspace/jacamo/build/libs/jacamo-0.7-SNAPSHOT.jar!/templates/common-moise.asl"
jason.asSyntax.parser.ParseException: Encountered ":" at line 16, column 7.
Was expecting one of:
    <VAR> ...
    "true" ...
    "false" ...
    "not" ...
    "~" ...
    "begin" ...
    "end" ...
    <NUMBER> ...
    <STRING> ...
    <ATOM> ...
    <UNNAMEDVAR> ...
    "+" ...
    "-" ...
    "(" ...
    
	at jason.asSyntax.parser.as2j.generateParseException(as2j.java:2785)
	at jason.asSyntax.parser.as2j.jj_consume_token(as2j.java:2665)
	at jason.asSyntax.parser.as2j.log_expr_factor(as2j.java:1221)
	at jason.asSyntax.parser.as2j.log_expr_trm(as2j.java:1180)
	at jason.asSyntax.parser.as2j.log_expr(as2j.java:1163)
	at jason.asSyntax.parser.as2j.plan(as2j.java:358)
	at jason.asSyntax.parser.as2j.agent(as2j.java:188)
	at jason.asSyntax.directives.Include.process(Include.java:81)
	at jason.asSyntax.directives.DirectiveProcessor.process(DirectiveProcessor.java:66)
	at jason.asSyntax.parser.as2j.directive(as2j.java:277)
	at jason.asSyntax.parser.as2j.agent(as2j.java:237)
	at jason.asSyntax.directives.Include.process(Include.java:81)
	at jason.asSyntax.directives.DirectiveProcessor.process(DirectiveProcessor.java:66)
	at jason.asSyntax.parser.as2j.directive(as2j.java:277)
	at jason.asSyntax.parser.as2j.agent(as2j.java:237)
	at jason.asSemantics.Agent.parseAS(Agent.java:431)
	at jason.asSemantics.Agent.parseAS(Agent.java:416)
	at jason.asSemantics.Agent.load(Agent.java:194)
	at jason.asSemantics.Agent.create(Agent.java:141)
	at jason.infra.centralised.CentralisedAgArch.createArchs(CentralisedAgArch.java:92)
	at jason.infra.centralised.RunCentralisedMAS.createAgs(RunCentralisedMAS.java:465)
	at jacamo.infra.JaCaMoLauncher.createAgs(JaCaMoLauncher.java:420)
	at jacamo.infra.JaCaMoLauncher.create(JaCaMoLauncher.java:240)
	at jacamo.infra.JaCaMoLauncher.main(JaCaMoLauncher.java:97)

[Include] as2j: error parsing "jar:file:/Users/ASUS/workspace/jacamo/build/libs/jacamo-0.7-SNAPSHOT.jar!/templates/common-moise.asl"
jason.asSyntax.parser.ParseException: Encountered ":" at line 16, column 7.
Was expecting one of:
    <VAR> ...
    "true" ...
    "false" ...
    "not" ...
    "~" ...
    "begin" ...
    "end" ...
    <NUMBER> ...
    <STRING> ...
    <ATOM> ...
    <UNNAMEDVAR> ...
    "+" ...
    "-" ...
    "(" ...
    
	at jason.asSyntax.parser.as2j.generateParseException(as2j.java:2785)
	at jason.asSyntax.parser.as2j.jj_consume_token(as2j.java:2665)
	at jason.asSyntax.parser.as2j.log_expr_factor(as2j.java:1221)
	at jason.asSyntax.parser.as2j.log_expr_trm(as2j.java:1180)
	at jason.asSyntax.parser.as2j.log_expr(as2j.java:1163)
	at jason.asSyntax.parser.as2j.plan(as2j.java:358)
	at jason.asSyntax.parser.as2j.agent(as2j.java:188)
	at jason.asSyntax.directives.Include.process(Include.java:81)
	at jason.asSyntax.directives.DirectiveProcessor.process(DirectiveProcessor.java:66)
	at jason.asSyntax.parser.as2j.directive(as2j.java:277)
	at jason.asSyntax.parser.as2j.agent(as2j.java:237)
	at jason.asSyntax.directives.Include.process(Include.java:81)
	at jason.asSyntax.directives.DirectiveProcessor.process(DirectiveProcessor.java:66)
	at jason.asSyntax.parser.as2j.directive(as2j.java:277)
	at jason.asSyntax.parser.as2j.agent(as2j.java:237)
	at jason.asSemantics.Agent.parseAS(Agent.java:431)
	at jason.asSemantics.Agent.parseAS(Agent.java:416)
	at jason.asSemantics.Agent.load(Agent.java:194)
	at jason.asSemantics.Agent.create(Agent.java:141)
	at jason.infra.centralised.CentralisedAgArch.createArchs(CentralisedAgArch.java:92)
	at jason.infra.centralised.RunCentralisedMAS.createAgs(RunCentralisedMAS.java:465)
	at jacamo.infra.JaCaMoLauncher.createAgs(JaCaMoLauncher.java:420)
	at jacamo.infra.JaCaMoLauncher.create(JaCaMoLauncher.java:240)
	at jacamo.infra.JaCaMoLauncher.main(JaCaMoLauncher.java:97)

[giacomo] Could not finish intention:
intention 103: 
    +!create_auction_artifact("SitePreparation",2000)[source(self)] <- ... makeArtifact(ArtName,"tools.AuctionArt",[Task,MaxPrice],ArtId); focus(ArtId) / {Task="SitePreparation", ArtName="auction_for_SitePreparation", MaxPrice=2000}
    +!create_auction_artifacts[source(self)] <- ... !create_auction_artifact("SitePreparation",2000); !create_auction_artifact("FloorsWalls",1000); !create_auction_artifact("Roof",2000); !create_auction_artifact("WindowsDoors",2500); !create_auction_artifact("Plumbing",500); !create_auction_artifact("ElectricalSystem",500); !create_auction_artifact("Painting",1200) / {}
    +!contract[source(self)] <- ... !create_auction_artifacts; !wait_for_bids / {}
    +!have_a_house[source(self)] <- ... !contract; !execute / {}

[giacomo] Found a goal for which there is no applicable plan:-!create_auction_artifact("SitePreparation",2000)[code(makeArtifact("auction_for_SitePreparation","tools.AuctionArt",["SitePreparation",2000],_610)),code_line(45),code_src("C:/Users/ASUS/workspace/house_building_0.7_accountability/src/agt/giacomo.asl"),env_failure_reason(makeArtifactFailure("init_failed","auction_for_SitePreparation")),error(action_failed),error_msg("artifact auction_for_SitePreparation creation failed: an error occurred in artifact initialisation"),source(self)]
