[companyD8] No failure event was generated for +!contract("WindowsDoors","myorg","hsh_group")[code(proposeForRole(window_fitter,"provision_for_windows_doors")[artifact_id(cobj_13)]),code_line(37),code_src("C:\Users\ASUS\workspace\house_building_0.7_accountable\src\agt\inc\org_code.asl"),env_failure_reason(unknown_operation(cobj_13,"proposeForRole")),error(action_failed),error_msg("Unknown operation proposeForRole on artifact hsh_group (type ora4mas.nopl.GroupBoard)"),source(giacomo)]
intention 277: 
    +!contract("WindowsDoors","myorg","hsh_group")[source(giacomo)] <- ... proposeForRole(Role,Provision)[artifact_id(GroupId)]; focus(GroupId); .foreach(.member(Role,Roles),{ .foreach(role_mission(Role,S,M),{ println("My mission will be ",M," in scheme ",S); .foreach(mission_goal(M,G),{ println("     goal ",G) }) }); println("Mi propongo per il ruolo ",Role," con la provision ",Provision); proposeForRole(Role,Provision)[artifact_id(GroupId)]; focus(GroupId) },java.util.ArrayList$Itr@66d72bbd,{GroupName="hsh_group", Provision="provision_for_windows_doors", OrgId=cobj_12, Task="WindowsDoors", OrgName="myorg", Roles=[window_fitter,door_fitter], GroupId=cobj_13}) / {GroupName="hsh_group", Provision="provision_for_windows_doors", Role=window_fitter, OrgId=cobj_12, Task="WindowsDoors", OrgName="myorg", Roles=[window_fitter,door_fitter], GroupId=cobj_13}

[companyD8] No failure event was generated for +!contract("SitePreparation","myorg","hsh_group")[code(proposeForRole(site_prep_contractor,"provision_for_site")[artifact_id(cobj_13)]),code_line(37),code_src("C:\Users\ASUS\workspace\house_building_0.7_accountable\src\agt\inc\org_code.asl"),env_failure_reason(unknown_operation(cobj_13,"proposeForRole")),error(action_failed),error_msg("Unknown operation proposeForRole on artifact hsh_group (type ora4mas.nopl.GroupBoard)"),source(giacomo)]
intention 280: 
    +!contract("SitePreparation","myorg","hsh_group")[source(giacomo)] <- ... proposeForRole(Role,Provision)[artifact_id(GroupId)]; focus(GroupId); .foreach(.member(Role,Roles),{ .foreach(role_mission(Role,S,M),{ println("My mission will be ",M," in scheme ",S); .foreach(mission_goal(M,G),{ println("     goal ",G) }) }); println("Mi propongo per il ruolo ",Role," con la provision ",Provision); proposeForRole(Role,Provision)[artifact_id(GroupId)]; focus(GroupId) },java.util.ArrayList$Itr@58e53d39,{GroupName="hsh_group", Provision="provision_for_site", OrgId=cobj_12, Task="SitePreparation", OrgName="myorg", Roles=[site_prep_contractor], GroupId=cobj_13}) / {GroupName="hsh_group", Provision="provision_for_site", Role=site_prep_contractor, OrgId=cobj_12, Task="SitePreparation", OrgName="myorg", Roles=[site_prep_contractor], GroupId=cobj_13}

[companyC3] No failure event was generated for +!contract("Painting","myorg","hsh_group")[code(proposeForRole(painter,"provision_for_painting")[artifact_id(cobj_13)]),code_line(37),code_src("C:\Users\ASUS\workspace\house_building_0.7_accountable\src\agt\inc\org_code.asl"),env_failure_reason(unknown_operation(cobj_13,"proposeForRole")),error(action_failed),error_msg("Unknown operation proposeForRole on artifact hsh_group (type ora4mas.nopl.GroupBoard)"),source(giacomo)]
intention 278: 
    +!contract("Painting","myorg","hsh_group")[source(giacomo)] <- ... proposeForRole(Role,Provision)[artifact_id(GroupId)]; focus(GroupId); .foreach(.member(Role,Roles),{ .foreach(role_mission(Role,S,M),{ println("My mission will be ",M," in scheme ",S); .foreach(mission_goal(M,G),{ println("     goal ",G) }) }); println("Mi propongo per il ruolo ",Role," con la provision ",Provision); proposeForRole(Role,Provision)[artifact_id(GroupId)]; focus(GroupId) },java.util.ArrayList$Itr@1385e472,{GroupName="hsh_group", Provision="provision_for_painting", OrgId=cobj_12, Task="Painting", OrgName="myorg", Roles=[painter], GroupId=cobj_13}) / {GroupName="hsh_group", Provision="provision_for_painting", Role=painter, OrgId=cobj_12, Task="Painting", OrgName="myorg", Roles=[painter], GroupId=cobj_13}

[companyE] No failure event was generated for +!contract("Roof","myorg","hsh_group")[code(proposeForRole(roofer,"provision_for_roof")[artifact_id(cobj_8)]),code_line(37),code_src("C:\Users\ASUS\workspace\house_building_0.7_accountable\src\agt\inc\org_code.asl"),env_failure_reason(unknown_operation(cobj_8,"proposeForRole")),error(action_failed),error_msg("Unknown operation proposeForRole on artifact hsh_group (type ora4mas.nopl.GroupBoard)"),source(giacomo)]
intention 279: 
    +!contract("Roof","myorg","hsh_group")[source(giacomo)] <- ... proposeForRole(Role,Provision)[artifact_id(GroupId)]; focus(GroupId); .foreach(.member(Role,Roles),{ .foreach(role_mission(Role,S,M),{ println("My mission will be ",M," in scheme ",S); .foreach(mission_goal(M,G),{ println("     goal ",G) }) }); println("Mi propongo per il ruolo ",Role," con la provision ",Provision); proposeForRole(Role,Provision)[artifact_id(GroupId)]; focus(GroupId) },java.util.ArrayList$Itr@43c8492,{GroupName="hsh_group", Provision="provision_for_roof", OrgId=cobj_7, Task="Roof", OrgName="myorg", Roles=[roofer], GroupId=cobj_8}) / {GroupName="hsh_group", Provision="provision_for_roof", Role=roofer, OrgId=cobj_7, Task="Roof", OrgName="myorg", Roles=[roofer], GroupId=cobj_8}

[companyC4] No failure event was generated for +!contract("ElectricalSystem","myorg","hsh_group")[code(proposeForRole(electrician,"provision_for_electrical_system")[artifact_id(cobj_13)]),code_line(37),code_src("C:\Users\ASUS\workspace\house_building_0.7_accountable\src\agt\inc\org_code.asl"),env_failure_reason(unknown_operation(cobj_13,"proposeForRole")),error(action_failed),error_msg("Unknown operation proposeForRole on artifact hsh_group (type ora4mas.nopl.GroupBoard)"),source(giacomo)]
intention 283: 
    +!contract("ElectricalSystem","myorg","hsh_group")[source(giacomo)] <- ... proposeForRole(Role,Provision)[artifact_id(GroupId)]; focus(GroupId); .foreach(.member(Role,Roles),{ .foreach(role_mission(Role,S,M),{ println("My mission will be ",M," in scheme ",S); .foreach(mission_goal(M,G),{ println("     goal ",G) }) }); println("Mi propongo per il ruolo ",Role," con la provision ",Provision); proposeForRole(Role,Provision)[artifact_id(GroupId)]; focus(GroupId) },java.util.ArrayList$Itr@7e3a0fd8,{GroupName="hsh_group", Provision="provision_for_electrical_system", OrgId=cobj_12, Task="ElectricalSystem", OrgName="myorg", Roles=[electrician], GroupId=cobj_13}) / {GroupName="hsh_group", Provision="provision_for_electrical_system", Role=electrician, OrgId=cobj_12, Task="ElectricalSystem", OrgName="myorg", Roles=[electrician], GroupId=cobj_13}

[companyA] No failure event was generated for +!contract("Plumbing","myorg","hsh_group")[code(proposeForRole(plumber,"provision_for_plumbing")[artifact_id(cobj_6)]),code_line(37),code_src("C:\Users\ASUS\workspace\house_building_0.7_accountable\src\agt\inc\org_code.asl"),env_failure_reason(unknown_operation(cobj_6,"proposeForRole")),error(action_failed),error_msg("Unknown operation proposeForRole on artifact hsh_group (type ora4mas.nopl.GroupBoard)"),source(giacomo)]
intention 284: 
    +!contract("Plumbing","myorg","hsh_group")[source(giacomo)] <- ... proposeForRole(Role,Provision)[artifact_id(GroupId)]; focus(GroupId); .foreach(.member(Role,Roles),{ .foreach(role_mission(Role,S,M),{ println("My mission will be ",M," in scheme ",S); .foreach(mission_goal(M,G),{ println("     goal ",G) }) }); println("Mi propongo per il ruolo ",Role," con la provision ",Provision); proposeForRole(Role,Provision)[artifact_id(GroupId)]; focus(GroupId) },java.util.ArrayList$Itr@43ce60c5,{GroupName="hsh_group", Provision="provision_for_plumbing", OrgId=cobj_5, Task="Plumbing", OrgName="myorg", Roles=[plumber], GroupId=cobj_6}) / {GroupName="hsh_group", Provision="provision_for_plumbing", Role=plumber, OrgId=cobj_5, Task="Plumbing", OrgName="myorg", Roles=[plumber], GroupId=cobj_6}

[companyE] No failure event was generated for +!contract("Walls","myorg","hsh_group")[code(proposeForRole(bricklayer,"provision_for_walls")[artifact_id(cobj_8)]),code_line(37),code_src("C:\Users\ASUS\workspace\house_building_0.7_accountable\src\agt\inc\org_code.asl"),env_failure_reason(unknown_operation(cobj_8,"proposeForRole")),error(action_failed),error_msg("Unknown operation proposeForRole on artifact hsh_group (type ora4mas.nopl.GroupBoard)"),source(giacomo)]
intention 281: 
    +!contract("Walls","myorg","hsh_group")[source(giacomo)] <- ... proposeForRole(Role,Provision)[artifact_id(GroupId)]; focus(GroupId); .foreach(.member(Role,Roles),{ .foreach(role_mission(Role,S,M),{ println("My mission will be ",M," in scheme ",S); .foreach(mission_goal(M,G),{ println("     goal ",G) }) }); println("Mi propongo per il ruolo ",Role," con la provision ",Provision); proposeForRole(Role,Provision)[artifact_id(GroupId)]; focus(GroupId) },java.util.ArrayList$Itr@7c4f6ed5,{GroupName="hsh_group", Provision="provision_for_walls", OrgId=cobj_7, Task="Walls", OrgName="myorg", Roles=[bricklayer], GroupId=cobj_8}) / {GroupName="hsh_group", Provision="provision_for_walls", Role=bricklayer, OrgId=cobj_7, Task="Walls", OrgName="myorg", Roles=[bricklayer], GroupId=cobj_8}

[companyE] No failure event was generated for +!contract("Floors","myorg","hsh_group")[code(proposeForRole(bricklayer,"provision_for_floors")[artifact_id(cobj_8)]),code_line(37),code_src("C:\Users\ASUS\workspace\house_building_0.7_accountable\src\agt\inc\org_code.asl"),env_failure_reason(unknown_operation(cobj_8,"proposeForRole")),error(action_failed),error_msg("Unknown operation proposeForRole on artifact hsh_group (type ora4mas.nopl.GroupBoard)"),source(giacomo)]
intention 282: 
    +!contract("Floors","myorg","hsh_group")[source(giacomo)] <- ... proposeForRole(Role,Provision)[artifact_id(GroupId)]; focus(GroupId); .foreach(.member(Role,Roles),{ .foreach(role_mission(Role,S,M),{ println("My mission will be ",M," in scheme ",S); .foreach(mission_goal(M,G),{ println("     goal ",G) }) }); println("Mi propongo per il ruolo ",Role," con la provision ",Provision); proposeForRole(Role,Provision)[artifact_id(GroupId)]; focus(GroupId) },java.util.ArrayList$Itr@3572c333,{GroupName="hsh_group", Provision="provision_for_floors", OrgId=cobj_7, Task="Floors", OrgName="myorg", Roles=[bricklayer], GroupId=cobj_8}) / {GroupName="hsh_group", Provision="provision_for_floors", Role=bricklayer, OrgId=cobj_7, Task="Floors", OrgName="myorg", Roles=[bricklayer], GroupId=cobj_8}

[companyD10] Start new reasoning cycle
