[companyE] No failure event was generated for +!apply_for_role(bricklayer)[code(proposeProvisionForGoal(floors_laid,provision_for_floors_laid)),code_line(48),code_src("C:\Users\ASUS\workspace\house_building_0.7_accountable\src\agt\inc\org_code.asl"),env_failure_reason(unknown_operation("proposeProvisionForGoal/2")),error(action_failed),error_msg("Unknown Operation"),source(self)]
intention 302: 
    +!apply_for_role(bricklayer)[source(self)] <- ... proposeProvisionForGoal(G,P); .foreach(mission_goal(M,G),{ ?provision(G,P); proposeProvisionForGoal(G,P) },java.util.ArrayList$Itr@75f62d4,{Role=bricklayer, S=build_house_sch, M=lay_floors}); .foreach(role_mission(Role,S,M),{ .foreach(mission_goal(M,G),{ ?provision(G,P); proposeProvisionForGoal(G,P) }) },java.util.ArrayList$Itr@6362ec73,{Role=bricklayer}); proposeForRole(Role) / {Role=bricklayer, P=provision_for_floors_laid, S=build_house_sch, G=floors_laid, M=lay_floors}
    +!contract("Floors","myorg","hsh_group","acc_art")[source(giacomo)] <- ... !apply_for_role(Role); .foreach(.member(Role,Roles),{ !apply_for_role(Role) },java.util.ArrayList$Itr@3692c5e0,{GroupName="hsh_group", OrgId=cobj_7, Task="Floors", AccArtId=cobj_9, OrgName="myorg", Roles=[bricklayer], AccArtName="acc_art", GroupId=cobj_8}) / {GroupName="hsh_group", Role=bricklayer, OrgId=cobj_7, Task="Floors", AccArtId=cobj_9, OrgName="myorg", Roles=[bricklayer], AccArtName="acc_art", GroupId=cobj_8}

[companyD13] I am obliged to commit to fit_windows on bhsch... doing so
[companyD13] I am obliged to commit to fit_doors on bhsch... doing so
[companyC1] I am obliged to commit to install_electrical_system on bhsch... doing so
[companyE] I am obliged to commit to lay_floors on bhsch... doing so
[companyE] I am obliged to commit to build_walls on bhsch... doing so
[companyE] I am obliged to commit to build_roof on bhsch... doing so
[companyD9] I am obliged to commit to paint_house on bhsch... doing so
[companyD4] I am obliged to commit to prepare_site on bhsch... doing so
[companyA] I am obliged to commit to install_plumbing on bhsch... doing so
[giacomo] I am obliged to commit to management_of_house_building on bhsch... doing so
[companyA] No fail event was generated for +!plumbing_installed[scheme(bhsch),source(self)]
[companyA] 
intention 333: 
    +obligation(companyA,enabled(bhsch,plumbing_installed),done(bhsch,plumbing_installed,companyA),1503940722828)[artifact_id(cobj_8),percept_type(obs_prop),source(percept),artifact_name(cobj_8,bhsch),norm(ngoal,[["A",companyA],["S",bhsch],["D","1970-0-4 1:20:0"],["G",plumbing_installed],["M",install_plumbing],["What",done(bhsch,plumbing_installed,companyA)]]),workspace(cobj_8,ora4mas,cobj_3)] <- ... !Goal[scheme(Scheme)]; goalAchieved(Goal)[artifact_id(ArtId)] / {Goal=plumbing_installed, Scheme=bhsch, Ag=companyA, Deadline=1503940722828, ArtId=cobj_8, Norm=enabled(bhsch,plumbing_installed), What=done(bhsch,plumbing_installed,companyA)}

[companyA] Found a goal for which there is no applicable plan:+!plumbing_installed[scheme(bhsch),source(self)]
[companyD2] Start new reasoning cycle
[companyD11] Start new reasoning cycle
[companyD11] I finished!
[companyD10] Start new reasoning cycle
[companyD8] Start new reasoning cycle
[companyD8] I finished!
[giacomo] Start new reasoning cycle
[companyD10] I finished!
[companyD7] Start new reasoning cycle
[companyD9] Start new reasoning cycle
[companyD7] I finished!
[companyD12] Start new reasoning cycle
[companyD12] I finished!
[companyD9] I finished!
[companyD13] Start new reasoning cycle
[giacomo] I finished!
[companyE] Start new reasoning cycle
[companyE] I finished!
[companyD13] I finished!
[companyD4] Start new reasoning cycle
[companyC3] Start new reasoning cycle
[companyD3] Start new reasoning cycle
[companyD3] I finished!
[companyC2] Start new reasoning cycle
[companyD4] I finished!
[companyC2] I finished!
[companyD6] Start new reasoning cycle
[companyD6] I finished!
[companyC3] I finished!
[companyC5] Start new reasoning cycle
[companyB] Start new reasoning cycle
[companyB] I finished!
[companyD5] Start new reasoning cycle
[companyC5] I finished!
[companyD5] I finished!
[companyC4] Start new reasoning cycle
[companyA] Start new reasoning cycle
[companyC4] I finished!
[companyA] I finished!
