[companyC2] No failure event was generated for +!contract("ElectricalSystem","myorg","hsh_group","acc_art")[code(proposeForRole(electrician)[artifact_id(cobj_13)]),code_line(40),code_src("C:\Users\ASUS\workspace\house_building_0.7_accountable\src\agt\inc\org_code.asl"),env_failure_reason(unknown_operation(cobj_13,"proposeForRole")),error(action_failed),error_msg("Unknown operation proposeForRole on artifact hsh_group (type ora4mas.nopl.GroupBoard)"),source(giacomo)]
intention 283: 
    +!contract("ElectricalSystem","myorg","hsh_group","acc_art")[source(giacomo)] <- ... proposeForRole(Role)[artifact_id(GroupId)]; .foreach(.member(Role,Roles),{ .foreach(role_mission(Role,S,M),{ .foreach(mission_goal(M,G),{ ?provision(G,P); proposeProvisionForGoal(G,P) }) }); proposeForRole(Role)[artifact_id(GroupId)] },java.util.ArrayList$Itr@cca32af,{GroupName="hsh_group", OrgId=cobj_12, Task="ElectricalSystem", AccArtId=cobj_14, OrgName="myorg", Roles=[electrician], AccArtName="acc_art", GroupId=cobj_13}) / {GroupName="hsh_group", Task="ElectricalSystem", OrgName="myorg", Roles=[electrician], GroupId=cobj_13, Role=electrician, OrgId=cobj_12, AccArtId=cobj_14, AccArtName="acc_art"}

[companyB] No failure event was generated for +!contract("SitePreparation","myorg","hsh_group","acc_art")[code(proposeForRole(site_prep_contractor)[artifact_id(cobj_6)]),code_line(40),code_src("C:\Users\ASUS\workspace\house_building_0.7_accountable\src\agt\inc\org_code.asl"),env_failure_reason(unknown_operation(cobj_6,"proposeForRole")),error(action_failed),error_msg("Unknown operation proposeForRole on artifact hsh_group (type ora4mas.nopl.GroupBoard)"),source(giacomo)]
intention 287: 
    +!contract("SitePreparation","myorg","hsh_group","acc_art")[source(giacomo)] <- ... proposeForRole(Role)[artifact_id(GroupId)]; .foreach(.member(Role,Roles),{ .foreach(role_mission(Role,S,M),{ .foreach(mission_goal(M,G),{ ?provision(G,P); proposeProvisionForGoal(G,P) }) }); proposeForRole(Role)[artifact_id(GroupId)] },java.util.ArrayList$Itr@fbc902d,{GroupName="hsh_group", OrgId=cobj_5, Task="SitePreparation", AccArtId=cobj_7, OrgName="myorg", Roles=[site_prep_contractor], AccArtName="acc_art", GroupId=cobj_6}) / {GroupName="hsh_group", Task="SitePreparation", OrgName="myorg", Roles=[site_prep_contractor], GroupId=cobj_6, Role=site_prep_contractor, OrgId=cobj_5, AccArtId=cobj_7, AccArtName="acc_art"}

[companyE] No failure event was generated for +!contract("Floors","myorg","hsh_group","acc_art")[code(proposeForRole(bricklayer)[artifact_id(cobj_8)]),code_line(40),code_src("C:\Users\ASUS\workspace\house_building_0.7_accountable\src\agt\inc\org_code.asl"),env_failure_reason(unknown_operation(cobj_8,"proposeForRole")),error(action_failed),error_msg("Unknown operation proposeForRole on artifact hsh_group (type ora4mas.nopl.GroupBoard)"),source(giacomo)]
intention 284: 
    +!contract("Floors","myorg","hsh_group","acc_art")[source(giacomo)] <- ... proposeForRole(Role)[artifact_id(GroupId)]; .foreach(.member(Role,Roles),{ .foreach(role_mission(Role,S,M),{ .foreach(mission_goal(M,G),{ ?provision(G,P); proposeProvisionForGoal(G,P) }) }); proposeForRole(Role)[artifact_id(GroupId)] },java.util.ArrayList$Itr@7e3ba759,{GroupName="hsh_group", OrgId=cobj_7, Task="Floors", AccArtId=cobj_9, OrgName="myorg", Roles=[bricklayer], AccArtName="acc_art", GroupId=cobj_8}) / {GroupName="hsh_group", Task="Floors", OrgName="myorg", Roles=[bricklayer], GroupId=cobj_8, Role=bricklayer, OrgId=cobj_7, AccArtId=cobj_9, AccArtName="acc_art"}

[companyC2] No failure event was generated for +!contract("Painting","myorg","hsh_group","acc_art")[code(proposeForRole(painter)[artifact_id(cobj_13)]),code_line(40),code_src("C:\Users\ASUS\workspace\house_building_0.7_accountable\src\agt\inc\org_code.asl"),env_failure_reason(unknown_operation(cobj_13,"proposeForRole")),error(action_failed),error_msg("Unknown operation proposeForRole on artifact hsh_group (type ora4mas.nopl.GroupBoard)"),source(giacomo)]
intention 282: 
    +!contract("Painting","myorg","hsh_group","acc_art")[source(giacomo)] <- ... proposeForRole(Role)[artifact_id(GroupId)]; .foreach(.member(Role,Roles),{ .foreach(role_mission(Role,S,M),{ .foreach(mission_goal(M,G),{ ?provision(G,P); proposeProvisionForGoal(G,P) }) }); proposeForRole(Role)[artifact_id(GroupId)] },java.util.ArrayList$Itr@20fcfb8a,{GroupName="hsh_group", OrgId=cobj_12, Task="Painting", AccArtId=cobj_14, OrgName="myorg", Roles=[painter], AccArtName="acc_art", GroupId=cobj_13}) / {GroupName="hsh_group", Task="Painting", OrgName="myorg", Roles=[painter], GroupId=cobj_13, Role=painter, OrgId=cobj_12, AccArtId=cobj_14, AccArtName="acc_art"}

[companyC1] No failure event was generated for +!contract("WindowsDoors","myorg","hsh_group","acc_art")[code(proposeForRole(window_fitter)[artifact_id(cobj_13)]),code_line(40),code_src("C:\Users\ASUS\workspace\house_building_0.7_accountable\src\agt\inc\org_code.asl"),env_failure_reason(unknown_operation(cobj_13,"proposeForRole")),error(action_failed),error_msg("Unknown operation proposeForRole on artifact hsh_group (type ora4mas.nopl.GroupBoard)"),source(giacomo)]
intention 291: 
    +!contract("WindowsDoors","myorg","hsh_group","acc_art")[source(giacomo)] <- ... proposeForRole(Role)[artifact_id(GroupId)]; .foreach(.member(Role,Roles),{ .foreach(role_mission(Role,S,M),{ .foreach(mission_goal(M,G),{ ?provision(G,P); proposeProvisionForGoal(G,P) }) }); proposeForRole(Role)[artifact_id(GroupId)] },java.util.ArrayList$Itr@4fa5f5e8,{GroupName="hsh_group", OrgId=cobj_12, Task="WindowsDoors", AccArtId=cobj_14, OrgName="myorg", Roles=[window_fitter,door_fitter], AccArtName="acc_art", GroupId=cobj_13}) / {GroupName="hsh_group", Task="WindowsDoors", OrgName="myorg", Roles=[window_fitter,door_fitter], GroupId=cobj_13, Role=window_fitter, OrgId=cobj_12, AccArtId=cobj_14, AccArtName="acc_art"}

[companyE] No failure event was generated for +!contract("Roof","myorg","hsh_group","acc_art")[code(proposeForRole(roofer)[artifact_id(cobj_8)]),code_line(40),code_src("C:\Users\ASUS\workspace\house_building_0.7_accountable\src\agt\inc\org_code.asl"),env_failure_reason(unknown_operation(cobj_8,"proposeForRole")),error(action_failed),error_msg("Unknown operation proposeForRole on artifact hsh_group (type ora4mas.nopl.GroupBoard)"),source(giacomo)]
intention 285: 
    +!contract("Roof","myorg","hsh_group","acc_art")[source(giacomo)] <- ... proposeForRole(Role)[artifact_id(GroupId)]; .foreach(.member(Role,Roles),{ .foreach(role_mission(Role,S,M),{ .foreach(mission_goal(M,G),{ ?provision(G,P); proposeProvisionForGoal(G,P) }) }); proposeForRole(Role)[artifact_id(GroupId)] },java.util.ArrayList$Itr@15db7dad,{GroupName="hsh_group", OrgId=cobj_7, Task="Roof", AccArtId=cobj_9, OrgName="myorg", Roles=[roofer], AccArtName="acc_art", GroupId=cobj_8}) / {GroupName="hsh_group", Task="Roof", OrgName="myorg", Roles=[roofer], GroupId=cobj_8, Role=roofer, OrgId=cobj_7, AccArtId=cobj_9, AccArtName="acc_art"}

[companyA] No failure event was generated for +!contract("Plumbing","myorg","hsh_group","acc_art")[code(proposeForRole(plumber)[artifact_id(cobj_6)]),code_line(40),code_src("C:\Users\ASUS\workspace\house_building_0.7_accountable\src\agt\inc\org_code.asl"),env_failure_reason(unknown_operation(cobj_6,"proposeForRole")),error(action_failed),error_msg("Unknown operation proposeForRole on artifact hsh_group (type ora4mas.nopl.GroupBoard)"),source(giacomo)]
intention 293: 
    +!contract("Plumbing","myorg","hsh_group","acc_art")[source(giacomo)] <- ... proposeForRole(Role)[artifact_id(GroupId)]; .foreach(.member(Role,Roles),{ .foreach(role_mission(Role,S,M),{ .foreach(mission_goal(M,G),{ ?provision(G,P); proposeProvisionForGoal(G,P) }) }); proposeForRole(Role)[artifact_id(GroupId)] },java.util.ArrayList$Itr@47fb2994,{GroupName="hsh_group", OrgId=cobj_5, Task="Plumbing", AccArtId=cobj_7, OrgName="myorg", Roles=[plumber], AccArtName="acc_art", GroupId=cobj_6}) / {GroupName="hsh_group", Task="Plumbing", OrgName="myorg", Roles=[plumber], GroupId=cobj_6, Role=plumber, OrgId=cobj_5, AccArtId=cobj_7, AccArtName="acc_art"}

[companyE] No failure event was generated for +!contract("Walls","myorg","hsh_group","acc_art")[code(proposeForRole(bricklayer)[artifact_id(cobj_8)]),code_line(40),code_src("C:\Users\ASUS\workspace\house_building_0.7_accountable\src\agt\inc\org_code.asl"),env_failure_reason(unknown_operation(cobj_8,"proposeForRole")),error(action_failed),error_msg("Unknown operation proposeForRole on artifact hsh_group (type ora4mas.nopl.GroupBoard)"),source(giacomo)]
intention 289: 
    +!contract("Walls","myorg","hsh_group","acc_art")[source(giacomo)] <- ... proposeForRole(Role)[artifact_id(GroupId)]; .foreach(.member(Role,Roles),{ .foreach(role_mission(Role,S,M),{ .foreach(mission_goal(M,G),{ ?provision(G,P); proposeProvisionForGoal(G,P) }) }); proposeForRole(Role)[artifact_id(GroupId)] },java.util.ArrayList$Itr@2f115691,{GroupName="hsh_group", OrgId=cobj_7, Task="Walls", AccArtId=cobj_9, OrgName="myorg", Roles=[bricklayer], AccArtName="acc_art", GroupId=cobj_8}) / {GroupName="hsh_group", Task="Walls", OrgName="myorg", Roles=[bricklayer], GroupId=cobj_8, Role=bricklayer, OrgId=cobj_7, AccArtId=cobj_9, AccArtName="acc_art"}

