[companyD6] I am obliged to commit to prepare_site on bh_scheme... doing so
[giacomo] I am obliged to commit to management_of_house_building on bh_scheme... doing so
[companyC3] I am obliged to commit to install_electrical_system on bh_scheme... doing so
[companyD4] I am obliged to commit to fit_windows on bh_scheme... doing so
[companyD4] I am obliged to commit to fit_doors on bh_scheme... doing so
[companyA] I am obliged to commit to install_plumbing on bh_scheme... doing so
[companyC2] I am obliged to commit to paint_house on bh_scheme... doing so
[companyE] I am obliged to commit to lay_floors on bh_scheme... doing so
[companyE] I am obliged to commit to build_walls on bh_scheme... doing so
[companyE] I am obliged to commit to build_roof on bh_scheme... doing so
[giacomo] Could not finish intention: intention 265: 
    +agreedGoal(companyD6,site_prepared)[artifact_id(cobj_11),percept_type(obs_prop),artifact_name(cobj_11,bh_acc),workspace(cobj_11,ora4mas,cobj_9)] <- ... informProvision(Goal,Prov) / {Goal=site_prepared, Ag=companyD6, Prov=true_prov}
	Trigger: +agreedGoal(companyD6,site_prepared)[artifact_id(cobj_11),code(informProvision(site_prepared,true_prov)),code_line(20),code_src("C:\Users\tedeschi\workspace\house_building_accountability\src\agt\inc\org-accountable.asl"),env_failure_reason(unknown_operation(cobj_11,"informProvision")),error(action_failed),error_msg("Unknown operation informProvision on artifact bh_acc (type ora4mas.nopl.accountability.AccountabilityBoard)"),percept_type(obs_prop),artifact_name(cobj_11,bh_acc),workspace(cobj_11,ora4mas,cobj_9)]
[GroupBoard] companyA has quit, role plumber removed by the platform!
[GroupBoard] companyD6 has quit, role site_prep_contractor removed by the platform!
[GroupBoard] companyC2 has quit, role painter removed by the platform!
[GroupBoard] companyC3 has quit, role electrician removed by the platform!
[GroupBoard] companyD4 has quit, role door_fitter removed by the platform!
[GroupBoard] companyD4 has quit, role window_fitter removed by the platform!
[GroupBoard] companyE has quit, role bricklayer removed by the platform!
[GroupBoard] companyE has quit, role roofer removed by the platform!
[GroupBoard] giacomo has quit, role house_owner removed by the platform!
