[companyD10] No fail event was generated for +!apply_for_role(window_fitter)[source(self)]
[companyD10] 
intention 282: 
    +!contract("WindowsDoors","myorg","hsh_group","acc_art")[source(giacomo)] <- ... !apply_for_role(Role); .foreach(.member(Role,Roles),{ !apply_for_role(Role) },java.util.ArrayList$Itr@38922900,{GroupName="hsh_group", OrgId=cobj_12, Task="WindowsDoors", AccArtId=cobj_14, OrgName="myorg", Roles=[window_fitter,door_fitter], AccArtName="acc_art", GroupId=cobj_13}) / {GroupName="hsh_group", Role=window_fitter, OrgId=cobj_12, Task="WindowsDoors", AccArtId=cobj_14, OrgName="myorg", Roles=[window_fitter,door_fitter], AccArtName="acc_art", GroupId=cobj_13}

[companyD7] No fail event was generated for +!apply_for_role(painter)[source(self)]
[companyD7] 
intention 283: 
    +!contract("Painting","myorg","hsh_group","acc_art")[source(giacomo)] <- ... !apply_for_role(Role); .foreach(.member(Role,Roles),{ !apply_for_role(Role) },java.util.ArrayList$Itr@178f1732,{GroupName="hsh_group", OrgId=cobj_12, Task="Painting", AccArtId=cobj_14, OrgName="myorg", Roles=[painter], AccArtName="acc_art", GroupId=cobj_13}) / {GroupName="hsh_group", Role=painter, OrgId=cobj_12, Task="Painting", AccArtId=cobj_14, OrgName="myorg", Roles=[painter], AccArtName="acc_art", GroupId=cobj_13}

[companyD7] Found a goal for which there is no applicable plan:+!apply_for_role(painter)[source(self)]
[companyE] No fail event was generated for +!apply_for_role(roofer)[source(self)]
[companyE] 
intention 284: 
    +!contract("Roof","myorg","hsh_group","acc_art")[source(giacomo)] <- ... !apply_for_role(Role); .foreach(.member(Role,Roles),{ !apply_for_role(Role) },java.util.ArrayList$Itr@3492853b,{GroupName="hsh_group", OrgId=cobj_7, Task="Roof", AccArtId=cobj_9, OrgName="myorg", Roles=[roofer], AccArtName="acc_art", GroupId=cobj_8}) / {GroupName="hsh_group", Role=roofer, OrgId=cobj_7, Task="Roof", AccArtId=cobj_9, OrgName="myorg", Roles=[roofer], AccArtName="acc_art", GroupId=cobj_8}

[companyE] Found a goal for which there is no applicable plan:+!apply_for_role(roofer)[source(self)]
[companyD10] Found a goal for which there is no applicable plan:+!apply_for_role(window_fitter)[source(self)]
[companyC4] No fail event was generated for +!apply_for_role(electrician)[source(self)]
[companyC4] 
intention 288: 
    +!contract("ElectricalSystem","myorg","hsh_group","acc_art")[source(giacomo)] <- ... !apply_for_role(Role); .foreach(.member(Role,Roles),{ !apply_for_role(Role) },java.util.ArrayList$Itr@1e105dd2,{GroupName="hsh_group", OrgId=cobj_12, Task="ElectricalSystem", AccArtId=cobj_14, OrgName="myorg", Roles=[electrician], AccArtName="acc_art", GroupId=cobj_13}) / {GroupName="hsh_group", Role=electrician, OrgId=cobj_12, Task="ElectricalSystem", AccArtId=cobj_14, OrgName="myorg", Roles=[electrician], AccArtName="acc_art", GroupId=cobj_13}

[companyC4] Found a goal for which there is no applicable plan:+!apply_for_role(electrician)[source(self)]
[companyE] No fail event was generated for +!apply_for_role(bricklayer)[source(self)]
[companyE] 
intention 290: 
    +!contract("Walls","myorg","hsh_group","acc_art")[source(giacomo)] <- ... !apply_for_role(Role); .foreach(.member(Role,Roles),{ !apply_for_role(Role) },java.util.ArrayList$Itr@c329d22,{GroupName="hsh_group", OrgId=cobj_7, Task="Walls", AccArtId=cobj_9, OrgName="myorg", Roles=[bricklayer], AccArtName="acc_art", GroupId=cobj_8}) / {GroupName="hsh_group", Role=bricklayer, OrgId=cobj_7, Task="Walls", AccArtId=cobj_9, OrgName="myorg", Roles=[bricklayer], AccArtName="acc_art", GroupId=cobj_8}

[companyE] Found a goal for which there is no applicable plan:+!apply_for_role(bricklayer)[source(self)]
[companyD10] No fail event was generated for +!apply_for_role(site_prep_contractor)[source(self)]
[companyD10] 
intention 289: 
    +!contract("SitePreparation","myorg","hsh_group","acc_art")[source(giacomo)] <- ... !apply_for_role(Role); .foreach(.member(Role,Roles),{ !apply_for_role(Role) },java.util.ArrayList$Itr@7a01fb6c,{GroupName="hsh_group", OrgId=cobj_12, Task="SitePreparation", AccArtId=cobj_14, OrgName="myorg", Roles=[site_prep_contractor], AccArtName="acc_art", GroupId=cobj_13}) / {GroupName="hsh_group", Role=site_prep_contractor, OrgId=cobj_12, Task="SitePreparation", AccArtId=cobj_14, OrgName="myorg", Roles=[site_prep_contractor], AccArtName="acc_art", GroupId=cobj_13}

[companyD10] Found a goal for which there is no applicable plan:+!apply_for_role(site_prep_contractor)[source(self)]
[companyA] No fail event was generated for +!apply_for_role(plumber)[source(self)]
[companyA] 
intention 292: 
    +!contract("Plumbing","myorg","hsh_group","acc_art")[source(giacomo)] <- ... !apply_for_role(Role); .foreach(.member(Role,Roles),{ !apply_for_role(Role) },java.util.ArrayList$Itr@7cbc7eb9,{GroupName="hsh_group", OrgId=cobj_5, Task="Plumbing", AccArtId=cobj_7, OrgName="myorg", Roles=[plumber], AccArtName="acc_art", GroupId=cobj_6}) / {GroupName="hsh_group", Role=plumber, OrgId=cobj_5, Task="Plumbing", AccArtId=cobj_7, OrgName="myorg", Roles=[plumber], AccArtName="acc_art", GroupId=cobj_6}

[companyA] Found a goal for which there is no applicable plan:+!apply_for_role(plumber)[source(self)]
[companyE] No fail event was generated for +!apply_for_role(bricklayer)[source(self)]
[companyE] 
intention 293: 
    +!contract("Floors","myorg","hsh_group","acc_art")[source(giacomo)] <- ... !apply_for_role(Role); .foreach(.member(Role,Roles),{ !apply_for_role(Role) },java.util.ArrayList$Itr@56cd42b,{GroupName="hsh_group", OrgId=cobj_7, Task="Floors", AccArtId=cobj_9, OrgName="myorg", Roles=[bricklayer], AccArtName="acc_art", GroupId=cobj_8}) / {GroupName="hsh_group", Role=bricklayer, OrgId=cobj_7, Task="Floors", AccArtId=cobj_9, OrgName="myorg", Roles=[bricklayer], AccArtName="acc_art", GroupId=cobj_8}

[companyE] Found a goal for which there is no applicable plan:+!apply_for_role(bricklayer)[source(self)]
