[companyE] No failure event was generated for +!contract("Floors","myorg","hsh_group","acc_art")[code(proposeForRole(bricklayer)),code_line(41),code_src("C:\Users\ASUS\workspace\house_building_0.7_accountable\src\agt\inc\org_code.asl"),env_failure_reason(unknown_operation("proposeForRole/1")),error(action_failed),error_msg("Unknown Operation"),source(giacomo)]
intention 297: 
    +!contract("Floors","myorg","hsh_group","acc_art")[source(giacomo)] <- ... proposeForRole(Role); .foreach(.member(Role,Roles),{ .foreach(role_mission(Role,S,M),{ .foreach(mission_goal(M,G),{ ?provision(G,P); println("GOAL: ",G,", PROVISION: ",P); proposeProvisionForGoal(G,P) }) }); proposeForRole(Role) },java.util.ArrayList$Itr@76c7ffa3,{GroupName="hsh_group", OrgId=cobj_7, Task="Floors", AccArtId=cobj_9, OrgName="myorg", Roles=[bricklayer], AccArtName="acc_art", GroupId=cobj_8}) / {GroupName="hsh_group", Task="Floors", OrgName="myorg", Roles=[bricklayer], GroupId=cobj_8, Role=bricklayer, OrgId=cobj_7, AccArtId=cobj_9, AccArtName="acc_art"}

[companyA] Start new reasoning cycle
[companyC1] Start new reasoning cycle
[companyC1] I finished!
[companyD2] Start new reasoning cycle
[companyC4] Start new reasoning cycle
[companyD5] Start new reasoning cycle
[companyD2] I finished!
[companyB] Start new reasoning cycle
[companyC5] Start new reasoning cycle
[companyC5] I finished!
[companyD6] Start new reasoning cycle
[companyB] I finished!
[companyC2] Start new reasoning cycle
[companyD6] I finished!
[companyD3] Start new reasoning cycle
[companyD3] I finished!
[companyC3] Start new reasoning cycle
[companyC2] I finished!
[companyD4] Start new reasoning cycle
[companyC3] I finished!
[companyE] Start new reasoning cycle
[companyD4] I finished!
[companyD13] Start new reasoning cycle
[companyD13] I finished!
[companyD12] Start new reasoning cycle
[companyE] I finished!
[companyD9] Start new reasoning cycle
[companyD12] I finished!
[giacomo] Start new reasoning cycle
[companyD9] I finished!
[companyD7] Start new reasoning cycle
[giacomo] I finished!
[companyD8] Start new reasoning cycle
[companyD11] Start new reasoning cycle
[companyD8] I finished!
[companyD10] Start new reasoning cycle
[companyA] I finished!
[companyD10] I finished!
[companyC4] I finished!
[companyD11] I finished!
[companyD7] I finished!
[companyD1] Start new reasoning cycle
[companyD5] I finished!
[companyD1] I finished!
