[CAgentArch] error trying action with cartago Artifact not found.
[CAgentArch] error trying action with cartago Artifact not found.
[CAgentArch] Action failed: acquirePowers(house_owner,bh_group,bh_scheme), in namespace default, operation ( acquirePowers house_owner bh_group bh_scheme )
[CAgentArch] error trying action with cartago Artifact not found.
[CAgentArch] Action failed: acquirePowers(site_prep_contractor,bh_group,bh_scheme), in namespace default, operation ( acquirePowers site_prep_contractor bh_group bh_scheme )
[giacomo] Could not finish intention: intention 245: 
    +schemes([bh_scheme])[artifact_id(cobj_12),percept_type(obs_prop),artifact_name(cobj_12,bh_group),workspace(cobj_12,ora4mas,cobj_9)] <- ... acquirePowers(Role,Group,Scheme); .concat(Group,".",Scheme,NBName); lookupArtifact(NBName,NBId)[wid(W)]; focus(NBId)[wid(W)]; .foreach(.member(Scheme,L),{ lookupArtifact(Scheme,ArtId)[wid(W)]; focus(ArtId)[wid(W)]; acquirePowers(Role,Group,Scheme); .concat(Group,".",Scheme,NBName); lookupArtifact(NBName,NBId)[wid(W)]; focus(NBId)[wid(W)] },java.util.ArrayList$Itr@5b9ee72f,{Role=house_owner, Group=bh_group, Ag=giacomo, W=cobj_9, _7=cobj_12, _8=cobj_12, _9=ora4mas, L=[bh_scheme]}) / {Role=house_owner, Group=bh_group, Scheme=bh_scheme, Ag=giacomo, W=cobj_9, ArtId=cobj_14, _7=cobj_12, _8=cobj_12, _9=ora4mas, L=[bh_scheme]}
	Trigger: +schemes([bh_scheme])[artifact_id(cobj_12),code(acquirePowers(house_owner,bh_group,bh_scheme)),code_line(51),code_src("C:\Users\tedeschi\workspace\house_building_accountability\src\agt\inc\agent-accountable.asl"),env_failure_reason(env_failure(action_failed(acquirePowers,op(default,"( acquirePowers house_owner bh_group bh_scheme )")))),error(action_failed),error_msg("Action failed: acquirePowers(house_owner,bh_group,bh_scheme), in namespace default, operation ( acquirePowers house_owner bh_group bh_scheme )"),percept_type(obs_prop),artifact_name(cobj_12,bh_group),workspace(cobj_12,ora4mas,cobj_9)]
[companyB] Could not finish intention: intention 247: 
    +schemes([bh_scheme])[artifact_id(cobj_6),percept_type(obs_prop),artifact_name(cobj_6,bh_group),workspace(cobj_6,ora4mas,cobj_4)] <- ... acquirePowers(Role,Group,Scheme); .concat(Group,".",Scheme,NBName); lookupArtifact(NBName,NBId)[wid(W)]; focus(NBId)[wid(W)]; .foreach(.member(Scheme,L),{ lookupArtifact(Scheme,ArtId)[wid(W)]; focus(ArtId)[wid(W)]; acquirePowers(Role,Group,Scheme); .concat(Group,".",Scheme,NBName); lookupArtifact(NBName,NBId)[wid(W)]; focus(NBId)[wid(W)] },java.util.ArrayList$Itr@4f7723f4,{Role=site_prep_contractor, Group=bh_group, Ag=companyB, W=cobj_4, L=[bh_scheme], _64=cobj_6, _63=cobj_6, _65=ora4mas}) / {Role=site_prep_contractor, Group=bh_group, Scheme=bh_scheme, Ag=companyB, W=cobj_4, ArtId=cobj_9, L=[bh_scheme], _64=cobj_6, _63=cobj_6, _65=ora4mas}
	Trigger: +schemes([bh_scheme])[artifact_id(cobj_6),code(acquirePowers(site_prep_contractor,bh_group,bh_scheme)),code_line(51),code_src("C:\Users\tedeschi\workspace\house_building_accountability\src\agt\inc\agent-accountable.asl"),env_failure_reason(env_failure(action_failed(acquirePowers,op(default,"( acquirePowers site_prep_contractor bh_group bh_scheme )")))),error(action_failed),error_msg("Action failed: acquirePowers(site_prep_contractor,bh_group,bh_scheme), in namespace default, operation ( acquirePowers site_prep_contractor bh_group bh_scheme )"),percept_type(obs_prop),artifact_name(cobj_6,bh_group),workspace(cobj_6,ora4mas,cobj_4)]
[CAgentArch] Action failed: acquirePowers(door_fitter,bh_group,bh_scheme), in namespace default, operation ( acquirePowers door_fitter bh_group bh_scheme )
[CAgentArch] error trying action with cartago Artifact not found.
[companyD4] Could not finish intention: intention 244: 
    +schemes([bh_scheme])[artifact_id(cobj_12),percept_type(obs_prop),artifact_name(cobj_12,bh_group),workspace(cobj_12,ora4mas,cobj_10)] <- ... acquirePowers(Role,Group,Scheme); .concat(Group,".",Scheme,NBName); lookupArtifact(NBName,NBId)[wid(W)]; focus(NBId)[wid(W)]; .foreach(.member(Scheme,L),{ lookupArtifact(Scheme,ArtId)[wid(W)]; focus(ArtId)[wid(W)]; acquirePowers(Role,Group,Scheme); .concat(Group,".",Scheme,NBName); lookupArtifact(NBName,NBId)[wid(W)]; focus(NBId)[wid(W)] },java.util.ArrayList$Itr@7e9c21ea,{_307=cobj_12, Role=door_fitter, _306=cobj_12, Group=bh_group, Ag=companyD4, _308=ora4mas, W=cobj_10, L=[bh_scheme]}) / {_307=cobj_12, Role=door_fitter, _306=cobj_12, Group=bh_group, Scheme=bh_scheme, Ag=companyD4, _308=ora4mas, W=cobj_10, ArtId=cobj_15, L=[bh_scheme]}
	Trigger: +schemes([bh_scheme])[artifact_id(cobj_12),code(acquirePowers(door_fitter,bh_group,bh_scheme)),code_line(51),code_src("C:\Users\tedeschi\workspace\house_building_accountability\src\agt\inc\agent-accountable.asl"),env_failure_reason(env_failure(action_failed(acquirePowers,op(default,"( acquirePowers door_fitter bh_group bh_scheme )")))),error(action_failed),error_msg("Action failed: acquirePowers(door_fitter,bh_group,bh_scheme), in namespace default, operation ( acquirePowers door_fitter bh_group bh_scheme )"),percept_type(obs_prop),artifact_name(cobj_12,bh_group),workspace(cobj_12,ora4mas,cobj_10)]
[CAgentArch] error trying action with cartago Artifact not found.
[CAgentArch] Action failed: acquirePowers(bricklayer,bh_group,bh_scheme), in namespace default, operation ( acquirePowers bricklayer bh_group bh_scheme )
[companyE] Could not finish intention: intention 246: 
    +schemes([bh_scheme])[artifact_id(cobj_7),percept_type(obs_prop),artifact_name(cobj_7,bh_group),workspace(cobj_7,ora4mas,cobj_5)] <- ... acquirePowers(Role,Group,Scheme); .concat(Group,".",Scheme,NBName); lookupArtifact(NBName,NBId)[wid(W)]; focus(NBId)[wid(W)]; .foreach(.member(Scheme,L),{ lookupArtifact(Scheme,ArtId)[wid(W)]; focus(ArtId)[wid(W)]; acquirePowers(Role,Group,Scheme); .concat(Group,".",Scheme,NBName); lookupArtifact(NBName,NBId)[wid(W)]; focus(NBId)[wid(W)] },java.util.ArrayList$Itr@1ff7c2c3,{Role=bricklayer, Group=bh_group, Ag=companyE, W=cobj_5, L=[bh_scheme], _578=ora4mas, _577=cobj_7, _576=cobj_7}) / {Role=bricklayer, Group=bh_group, Scheme=bh_scheme, Ag=companyE, W=cobj_5, ArtId=cobj_10, L=[bh_scheme], _578=ora4mas, _577=cobj_7, _576=cobj_7}
	Trigger: +schemes([bh_scheme])[artifact_id(cobj_7),code(acquirePowers(bricklayer,bh_group,bh_scheme)),code_line(51),code_src("C:\Users\tedeschi\workspace\house_building_accountability\src\agt\inc\agent-accountable.asl"),env_failure_reason(env_failure(action_failed(acquirePowers,op(default,"( acquirePowers bricklayer bh_group bh_scheme )")))),error(action_failed),error_msg("Action failed: acquirePowers(bricklayer,bh_group,bh_scheme), in namespace default, operation ( acquirePowers bricklayer bh_group bh_scheme )"),percept_type(obs_prop),artifact_name(cobj_7,bh_group),workspace(cobj_7,ora4mas,cobj_5)]
[CAgentArch] Action failed: acquirePowers(electrician,bh_group,bh_scheme), in namespace default, operation ( acquirePowers electrician bh_group bh_scheme )
[companyC5] Could not finish intention: intention 248: 
    +schemes([bh_scheme])[artifact_id(cobj_12),percept_type(obs_prop),artifact_name(cobj_12,bh_group),workspace(cobj_12,ora4mas,cobj_10)] <- ... acquirePowers(Role,Group,Scheme); .concat(Group,".",Scheme,NBName); lookupArtifact(NBName,NBId)[wid(W)]; focus(NBId)[wid(W)]; .foreach(.member(Scheme,L),{ lookupArtifact(Scheme,ArtId)[wid(W)]; focus(ArtId)[wid(W)]; acquirePowers(Role,Group,Scheme); .concat(Group,".",Scheme,NBName); lookupArtifact(NBName,NBId)[wid(W)]; focus(NBId)[wid(W)] },java.util.ArrayList$Itr@228d8bfa,{Role=electrician, Group=bh_group, Ag=companyC5, W=cobj_10, _200=ora4mas, _199=cobj_12, _198=cobj_12, L=[bh_scheme]}) / {Role=electrician, Group=bh_group, Scheme=bh_scheme, Ag=companyC5, W=cobj_10, ArtId=cobj_15, _200=ora4mas, _199=cobj_12, _198=cobj_12, L=[bh_scheme]}
	Trigger: +schemes([bh_scheme])[artifact_id(cobj_12),code(acquirePowers(electrician,bh_group,bh_scheme)),code_line(51),code_src("C:\Users\tedeschi\workspace\house_building_accountability\src\agt\inc\agent-accountable.asl"),env_failure_reason(env_failure(action_failed(acquirePowers,op(default,"( acquirePowers electrician bh_group bh_scheme )")))),error(action_failed),error_msg("Action failed: acquirePowers(electrician,bh_group,bh_scheme), in namespace default, operation ( acquirePowers electrician bh_group bh_scheme )"),percept_type(obs_prop),artifact_name(cobj_12,bh_group),workspace(cobj_12,ora4mas,cobj_10)]
[CAgentArch] error trying action with cartago Artifact not found.
[CAgentArch] Action failed: acquirePowers(plumber,bh_group,bh_scheme), in namespace default, operation ( acquirePowers plumber bh_group bh_scheme )
[companyA] Could not finish intention: intention 249: 
    +schemes([bh_scheme])[artifact_id(cobj_6),percept_type(obs_prop),artifact_name(cobj_6,bh_group),workspace(cobj_6,ora4mas,cobj_4)] <- ... acquirePowers(Role,Group,Scheme); .concat(Group,".",Scheme,NBName); lookupArtifact(NBName,NBId)[wid(W)]; focus(NBId)[wid(W)]; .foreach(.member(Scheme,L),{ lookupArtifact(Scheme,ArtId)[wid(W)]; focus(ArtId)[wid(W)]; acquirePowers(Role,Group,Scheme); .concat(Group,".",Scheme,NBName); lookupArtifact(NBName,NBId)[wid(W)]; focus(NBId)[wid(W)] },java.util.ArrayList$Itr@52a94f01,{Role=plumber, Group=bh_group, _37=cobj_6, _36=cobj_6, _38=ora4mas, Ag=companyA, W=cobj_4, L=[bh_scheme]}) / {Role=plumber, Group=bh_group, _37=cobj_6, _36=cobj_6, Scheme=bh_scheme, _38=ora4mas, Ag=companyA, W=cobj_4, ArtId=cobj_9, L=[bh_scheme]}
	Trigger: +schemes([bh_scheme])[artifact_id(cobj_6),code(acquirePowers(plumber,bh_group,bh_scheme)),code_line(51),code_src("C:\Users\tedeschi\workspace\house_building_accountability\src\agt\inc\agent-accountable.asl"),env_failure_reason(env_failure(action_failed(acquirePowers,op(default,"( acquirePowers plumber bh_group bh_scheme )")))),error(action_failed),error_msg("Action failed: acquirePowers(plumber,bh_group,bh_scheme), in namespace default, operation ( acquirePowers plumber bh_group bh_scheme )"),percept_type(obs_prop),artifact_name(cobj_6,bh_group),workspace(cobj_6,ora4mas,cobj_4)]
[GroupBoard] companyA has quit, role plumber removed by the platform!
[GroupBoard] companyB has quit, role site_prep_contractor removed by the platform!
[GroupBoard] companyC5 has quit, role electrician removed by the platform!
[GroupBoard] companyC5 has quit, role painter removed by the platform!
[GroupBoard] companyD4 has quit, role door_fitter removed by the platform!
[GroupBoard] companyD4 has quit, role window_fitter removed by the platform!
[GroupBoard] companyE has quit, role bricklayer removed by the platform!
[GroupBoard] companyE has quit, role roofer removed by the platform!
[GroupBoard] giacomo has quit, role house_owner removed by the platform!
