[giacomo] I am obliged to commit to management_of_house_building on bh_scheme... doing so
[companyA] I am obliged to commit to install_plumbing on bh_scheme... doing so
[companyE] I am obliged to commit to lay_floors on bh_scheme... doing so
[companyD6] I am obliged to commit to paint_house on bh_scheme... doing so
[companyE] I am obliged to commit to build_walls on bh_scheme... doing so
[companyE] I am obliged to commit to build_roof on bh_scheme... doing so
[companyC5] I am obliged to commit to install_electrical_system on bh_scheme... doing so
[companyD3] I am obliged to commit to fit_windows on bh_scheme... doing so
[companyD3] I am obliged to commit to fit_doors on bh_scheme... doing so
[companyD1] I am obliged to commit to prepare_site on bh_scheme... doing so
[companyD1] I am obliged to done(bh_scheme,site_prepared,companyD1), but I don't know what to do!
[companyD1] Could not finish intention: intention 272: 
    +pendingGoal(companyD1,site_prepared)[artifact_id(cobj_13),percept_type(obs_prop),artifact_name(cobj_13,bh_acc),workspace(cobj_13,ora4mas,cobj_10)] <- ... proposeProvision(Goal,true) / {Goal=site_prepared, Ag=companyD1}
	Trigger: +pendingGoal(companyD1,site_prepared)[artifact_id(cobj_13),code(proposeProvision(site_prepared,true)),code_line(11),code_src("C:\Users\tedeschi\workspace\house_building_accountability\src\agt\inc\agent-accountable.asl"),env_failure_reason(wrong_op_arguments(cobj_13,"proposeProvision/2")),error(action_failed),error_msg("Wrong operation arguments: operation proposeProvision on artifact bh_acc (type: ora4mas.nopl.accountability.AccountabilityBoard)
- expected 2 parameter(s) - types: class java.lang.String, class java.lang.String
- actual parameter(s): site_prepared type: class java.lang.String, true type: class java.lang.Boolean"),percept_type(obs_prop),artifact_name(cobj_13,bh_acc),workspace(cobj_13,ora4mas,cobj_10)]
