[companyD10] No failure event was generated for +!contract("WindowsDoors","myorg","hsh_group","acc_art")[code(proposeForRole(window_fitter)[artifact_id(cobj_13)]),code_line(39),code_src("C:\Users\ASUS\workspace\house_building_0.7_accountable\src\agt\inc\org_code.asl"),env_failure_reason(unknown_operation(cobj_13,"proposeForRole")),error(action_failed),error_msg("Unknown operation proposeForRole on artifact hsh_group (type ora4mas.nopl.GroupBoard)"),source(giacomo)]
intention 286: 
    +!contract("WindowsDoors","myorg","hsh_group","acc_art")[source(giacomo)] <- ... proposeForRole(Role)[artifact_id(GroupId)]; .foreach(.member(Role,Roles),{ .foreach(role_mission(Role,S,M),{ .foreach(mission_goal(M,G),{ proposeProvisionForGoal(G,P) }) }); proposeForRole(Role)[artifact_id(GroupId)] },java.util.ArrayList$Itr@281f14c9,{GroupName="hsh_group", P="provision_for_site_prepared", OrgId=cobj_12, Task="WindowsDoors", AccArtId=cobj_14, G=site_prepared, OrgName="myorg", Roles=[window_fitter,door_fitter], AccArtName="acc_art", GroupId=cobj_13}) / {GroupName="hsh_group", Task="WindowsDoors", G=site_prepared, OrgName="myorg", Roles=[window_fitter,door_fitter], GroupId=cobj_13, P="provision_for_site_prepared", Role=window_fitter, OrgId=cobj_12, AccArtId=cobj_14, AccArtName="acc_art"}

[companyC3] No failure event was generated for +!contract("Painting","myorg","hsh_group","acc_art")[code(proposeForRole(painter)[artifact_id(cobj_13)]),code_line(39),code_src("C:\Users\ASUS\workspace\house_building_0.7_accountable\src\agt\inc\org_code.asl"),env_failure_reason(unknown_operation(cobj_13,"proposeForRole")),error(action_failed),error_msg("Unknown operation proposeForRole on artifact hsh_group (type ora4mas.nopl.GroupBoard)"),source(giacomo)]
intention 287: 
    +!contract("Painting","myorg","hsh_group","acc_art")[source(giacomo)] <- ... proposeForRole(Role)[artifact_id(GroupId)]; .foreach(.member(Role,Roles),{ .foreach(role_mission(Role,S,M),{ .foreach(mission_goal(M,G),{ proposeProvisionForGoal(G,P) }) }); proposeForRole(Role)[artifact_id(GroupId)] },java.util.ArrayList$Itr@47ab81f3,{GroupName="hsh_group", P="provision_for_site_prepared", OrgId=cobj_12, Task="Painting", AccArtId=cobj_14, G=site_prepared, OrgName="myorg", Roles=[painter], AccArtName="acc_art", GroupId=cobj_13}) / {GroupName="hsh_group", Task="Painting", G=site_prepared, OrgName="myorg", Roles=[painter], GroupId=cobj_13, P="provision_for_site_prepared", Role=painter, OrgId=cobj_12, AccArtId=cobj_14, AccArtName="acc_art"}

[companyE] No failure event was generated for +!contract("Walls","myorg","hsh_group","acc_art")[code(proposeForRole(bricklayer)[artifact_id(cobj_8)]),code_line(39),code_src("C:\Users\ASUS\workspace\house_building_0.7_accountable\src\agt\inc\org_code.asl"),env_failure_reason(unknown_operation(cobj_8,"proposeForRole")),error(action_failed),error_msg("Unknown operation proposeForRole on artifact hsh_group (type ora4mas.nopl.GroupBoard)"),source(giacomo)]
intention 290: 
    +!contract("Walls","myorg","hsh_group","acc_art")[source(giacomo)] <- ... proposeForRole(Role)[artifact_id(GroupId)]; .foreach(.member(Role,Roles),{ .foreach(role_mission(Role,S,M),{ .foreach(mission_goal(M,G),{ proposeProvisionForGoal(G,P) }) }); proposeForRole(Role)[artifact_id(GroupId)] },java.util.ArrayList$Itr@2a3613de,{GroupName="hsh_group", P="provision_for_site_prepared", OrgId=cobj_7, Task="Walls", AccArtId=cobj_9, G=site_prepared, OrgName="myorg", Roles=[bricklayer], AccArtName="acc_art", GroupId=cobj_8}) / {GroupName="hsh_group", Task="Walls", G=site_prepared, OrgName="myorg", Roles=[bricklayer], GroupId=cobj_8, P="provision_for_site_prepared", Role=bricklayer, OrgId=cobj_7, AccArtId=cobj_9, AccArtName="acc_art"}

[companyC4] No failure event was generated for +!contract("ElectricalSystem","myorg","hsh_group","acc_art")[code(proposeForRole(electrician)[artifact_id(cobj_13)]),code_line(39),code_src("C:\Users\ASUS\workspace\house_building_0.7_accountable\src\agt\inc\org_code.asl"),env_failure_reason(unknown_operation(cobj_13,"proposeForRole")),error(action_failed),error_msg("Unknown operation proposeForRole on artifact hsh_group (type ora4mas.nopl.GroupBoard)"),source(giacomo)]
intention 291: 
    +!contract("ElectricalSystem","myorg","hsh_group","acc_art")[source(giacomo)] <- ... proposeForRole(Role)[artifact_id(GroupId)]; .foreach(.member(Role,Roles),{ .foreach(role_mission(Role,S,M),{ .foreach(mission_goal(M,G),{ proposeProvisionForGoal(G,P) }) }); proposeForRole(Role)[artifact_id(GroupId)] },java.util.ArrayList$Itr@5cdc72bc,{GroupName="hsh_group", P="provision_for_site_prepared", OrgId=cobj_12, Task="ElectricalSystem", AccArtId=cobj_14, G=site_prepared, OrgName="myorg", Roles=[electrician], AccArtName="acc_art", GroupId=cobj_13}) / {GroupName="hsh_group", Task="ElectricalSystem", G=site_prepared, OrgName="myorg", Roles=[electrician], GroupId=cobj_13, P="provision_for_site_prepared", Role=electrician, OrgId=cobj_12, AccArtId=cobj_14, AccArtName="acc_art"}

[companyB] No failure event was generated for +!contract("SitePreparation","myorg","hsh_group","acc_art")[code(proposeForRole(site_prep_contractor)[artifact_id(cobj_6)]),code_line(39),code_src("C:\Users\ASUS\workspace\house_building_0.7_accountable\src\agt\inc\org_code.asl"),env_failure_reason(unknown_operation(cobj_6,"proposeForRole")),error(action_failed),error_msg("Unknown operation proposeForRole on artifact hsh_group (type ora4mas.nopl.GroupBoard)"),source(giacomo)]
intention 294: 
    +!contract("SitePreparation","myorg","hsh_group","acc_art")[source(giacomo)] <- ... proposeForRole(Role)[artifact_id(GroupId)]; .foreach(.member(Role,Roles),{ .foreach(role_mission(Role,S,M),{ .foreach(mission_goal(M,G),{ proposeProvisionForGoal(G,P) }) }); proposeForRole(Role)[artifact_id(GroupId)] },java.util.ArrayList$Itr@3940758e,{GroupName="hsh_group", P="provision_for_site_prepared", OrgId=cobj_5, Task="SitePreparation", AccArtId=cobj_7, G=site_prepared, OrgName="myorg", Roles=[site_prep_contractor], AccArtName="acc_art", GroupId=cobj_6}) / {GroupName="hsh_group", Task="SitePreparation", G=site_prepared, OrgName="myorg", Roles=[site_prep_contractor], GroupId=cobj_6, P="provision_for_site_prepared", Role=site_prep_contractor, OrgId=cobj_5, AccArtId=cobj_7, AccArtName="acc_art"}

[companyA] No failure event was generated for +!contract("Plumbing","myorg","hsh_group","acc_art")[code(proposeForRole(plumber)[artifact_id(cobj_6)]),code_line(39),code_src("C:\Users\ASUS\workspace\house_building_0.7_accountable\src\agt\inc\org_code.asl"),env_failure_reason(unknown_operation(cobj_6,"proposeForRole")),error(action_failed),error_msg("Unknown operation proposeForRole on artifact hsh_group (type ora4mas.nopl.GroupBoard)"),source(giacomo)]
intention 296: 
    +!contract("Plumbing","myorg","hsh_group","acc_art")[source(giacomo)] <- ... proposeForRole(Role)[artifact_id(GroupId)]; .foreach(.member(Role,Roles),{ .foreach(role_mission(Role,S,M),{ .foreach(mission_goal(M,G),{ proposeProvisionForGoal(G,P) }) }); proposeForRole(Role)[artifact_id(GroupId)] },java.util.ArrayList$Itr@3ee69e4d,{GroupName="hsh_group", P="provision_for_site_prepared", OrgId=cobj_5, Task="Plumbing", AccArtId=cobj_7, G=site_prepared, OrgName="myorg", Roles=[plumber], AccArtName="acc_art", GroupId=cobj_6}) / {GroupName="hsh_group", Task="Plumbing", G=site_prepared, OrgName="myorg", Roles=[plumber], GroupId=cobj_6, P="provision_for_site_prepared", Role=plumber, OrgId=cobj_5, AccArtId=cobj_7, AccArtName="acc_art"}

[companyE] No failure event was generated for +!contract("Roof","myorg","hsh_group","acc_art")[code(proposeForRole(roofer)[artifact_id(cobj_8)]),code_line(39),code_src("C:\Users\ASUS\workspace\house_building_0.7_accountable\src\agt\inc\org_code.asl"),env_failure_reason(unknown_operation(cobj_8,"proposeForRole")),error(action_failed),error_msg("Unknown operation proposeForRole on artifact hsh_group (type ora4mas.nopl.GroupBoard)"),source(giacomo)]
intention 293: 
    +!contract("Roof","myorg","hsh_group","acc_art")[source(giacomo)] <- ... proposeForRole(Role)[artifact_id(GroupId)]; .foreach(.member(Role,Roles),{ .foreach(role_mission(Role,S,M),{ .foreach(mission_goal(M,G),{ proposeProvisionForGoal(G,P) }) }); proposeForRole(Role)[artifact_id(GroupId)] },java.util.ArrayList$Itr@28a1183f,{GroupName="hsh_group", P="provision_for_site_prepared", OrgId=cobj_7, Task="Roof", AccArtId=cobj_9, G=site_prepared, OrgName="myorg", Roles=[roofer], AccArtName="acc_art", GroupId=cobj_8}) / {GroupName="hsh_group", Task="Roof", G=site_prepared, OrgName="myorg", Roles=[roofer], GroupId=cobj_8, P="provision_for_site_prepared", Role=roofer, OrgId=cobj_7, AccArtId=cobj_9, AccArtName="acc_art"}

[companyE] No failure event was generated for +!contract("Floors","myorg","hsh_group","acc_art")[code(proposeForRole(bricklayer)[artifact_id(cobj_8)]),code_line(39),code_src("C:\Users\ASUS\workspace\house_building_0.7_accountable\src\agt\inc\org_code.asl"),env_failure_reason(unknown_operation(cobj_8,"proposeForRole")),error(action_failed),error_msg("Unknown operation proposeForRole on artifact hsh_group (type ora4mas.nopl.GroupBoard)"),source(giacomo)]
intention 297: 
    +!contract("Floors","myorg","hsh_group","acc_art")[source(giacomo)] <- ... proposeForRole(Role)[artifact_id(GroupId)]; .foreach(.member(Role,Roles),{ .foreach(role_mission(Role,S,M),{ .foreach(mission_goal(M,G),{ proposeProvisionForGoal(G,P) }) }); proposeForRole(Role)[artifact_id(GroupId)] },java.util.ArrayList$Itr@1bd6f8ff,{GroupName="hsh_group", P="provision_for_site_prepared", OrgId=cobj_7, Task="Floors", AccArtId=cobj_9, G=site_prepared, OrgName="myorg", Roles=[bricklayer], AccArtName="acc_art", GroupId=cobj_8}) / {GroupName="hsh_group", Task="Floors", G=site_prepared, OrgName="myorg", Roles=[bricklayer], GroupId=cobj_8, P="provision_for_site_prepared", Role=bricklayer, OrgId=cobj_7, AccArtId=cobj_9, AccArtName="acc_art"}

