[CAgentArch] error trying action with cartago Artifact not found.
[CAgentArch] error trying action with cartago Artifact not found.
[CAgentArch] error trying action with cartago Artifact not found.
[CAgentArch] error trying action with cartago Artifact not found.
[CAgentArch] Action failed: acquirePower(bh_group,bh_scheme), in namespace default, operation ( acquirePower bh_group bh_scheme )
[CAgentArch] error trying action with cartago Artifact not found.
[CAgentArch] Action failed: acquirePower(bh_group,bh_scheme), in namespace default, operation ( acquirePower bh_group bh_scheme )
[CAgentArch] error trying action with cartago Artifact not found.
[giacomo] Could not finish intention: intention 257: 
    +schemes([bh_scheme])[artifact_id(cobj_12),percept_type(obs_prop),artifact_name(cobj_12,bh_group),workspace(cobj_12,ora4mas,cobj_9)] <- ... acquirePower(GroupName,S); .concat(GroupName,".",S,NBName); lookupArtifact(NBName,NBId)[wid(W)]; focus(NBId)[wid(W)]; .foreach(.member(S,L),{ lookupArtifact(S,ArtId)[wid(W)]; focus(ArtId)[wid(W)]; acquirePower(GroupName,S); .concat(GroupName,".",S,NBName); lookupArtifact(NBName,NBId)[wid(W)]; focus(NBId)[wid(W)] },java.util.ArrayList$Itr@15db7dad,{GroupName=bh_group, W=cobj_9, L=[bh_scheme], _20=cobj_12, _22=ora4mas, _21=cobj_12}) / {GroupName=bh_group, S=bh_scheme, W=cobj_9, ArtId=cobj_14, L=[bh_scheme], _20=cobj_12, _22=ora4mas, _21=cobj_12}
	Trigger: +schemes([bh_scheme])[artifact_id(cobj_12),code(acquirePower(bh_group,bh_scheme)),code_line(56),code_src("jar:file:C:\Users\tedeschi\workspace\jacamo\build\libs\jacamo-0.7-SNAPSHOT.jar!/templates/agent-accountable.asl"),env_failure_reason(env_failure(action_failed(acquirePower,op(default,"( acquirePower bh_group bh_scheme )")))),error(action_failed),error_msg("Action failed: acquirePower(bh_group,bh_scheme), in namespace default, operation ( acquirePower bh_group bh_scheme )"),percept_type(obs_prop),artifact_name(cobj_12,bh_group),workspace(cobj_12,ora4mas,cobj_9)]
[companyE] Could not finish intention: intention 261: 
    +schemes([bh_scheme])[artifact_id(cobj_7),percept_type(obs_prop),artifact_name(cobj_7,bh_group),workspace(cobj_7,ora4mas,cobj_5)] <- ... acquirePower(GroupName,S); .concat(GroupName,".",S,NBName); lookupArtifact(NBName,NBId)[wid(W)]; focus(NBId)[wid(W)]; .foreach(.member(S,L),{ lookupArtifact(S,ArtId)[wid(W)]; focus(ArtId)[wid(W)]; acquirePower(GroupName,S); .concat(GroupName,".",S,NBName); lookupArtifact(NBName,NBId)[wid(W)]; focus(NBId)[wid(W)] },java.util.ArrayList$Itr@c329d22,{GroupName=bh_group, W=cobj_5, _861=cobj_7, _862=ora4mas, L=[bh_scheme], _860=cobj_7}) / {GroupName=bh_group, S=bh_scheme, W=cobj_5, ArtId=cobj_10, _861=cobj_7, _862=ora4mas, L=[bh_scheme], _860=cobj_7}
	Trigger: +schemes([bh_scheme])[artifact_id(cobj_7),code(acquirePower(bh_group,bh_scheme)),code_line(56),code_src("jar:file:C:\Users\tedeschi\workspace\jacamo\build\libs\jacamo-0.7-SNAPSHOT.jar!/templates/agent-accountable.asl"),env_failure_reason(env_failure(action_failed(acquirePower,op(default,"( acquirePower bh_group bh_scheme )")))),error(action_failed),error_msg("Action failed: acquirePower(bh_group,bh_scheme), in namespace default, operation ( acquirePower bh_group bh_scheme )"),percept_type(obs_prop),artifact_name(cobj_7,bh_group),workspace(cobj_7,ora4mas,cobj_5)]
[CAgentArch] Action failed: acquirePower(bh_group,bh_scheme), in namespace default, operation ( acquirePower bh_group bh_scheme )
[CAgentArch] Action failed: acquirePower(bh_group,bh_scheme), in namespace default, operation ( acquirePower bh_group bh_scheme )
[companyA] Could not finish intention: intention 262: 
    +schemes([bh_scheme])[artifact_id(cobj_6),percept_type(obs_prop),artifact_name(cobj_6,bh_group),workspace(cobj_6,ora4mas,cobj_4)] <- ... acquirePower(GroupName,S); .concat(GroupName,".",S,NBName); lookupArtifact(NBName,NBId)[wid(W)]; focus(NBId)[wid(W)]; .foreach(.member(S,L),{ lookupArtifact(S,ArtId)[wid(W)]; focus(ArtId)[wid(W)]; acquirePower(GroupName,S); .concat(GroupName,".",S,NBName); lookupArtifact(NBName,NBId)[wid(W)]; focus(NBId)[wid(W)] },java.util.ArrayList$Itr@67b854df,{GroupName=bh_group, W=cobj_4, _60=cobj_6, _62=ora4mas, _61=cobj_6, L=[bh_scheme]}) / {GroupName=bh_group, S=bh_scheme, W=cobj_4, ArtId=cobj_9, _60=cobj_6, _62=ora4mas, _61=cobj_6, L=[bh_scheme]}
	Trigger: +schemes([bh_scheme])[artifact_id(cobj_6),code(acquirePower(bh_group,bh_scheme)),code_line(56),code_src("jar:file:C:\Users\tedeschi\workspace\jacamo\build\libs\jacamo-0.7-SNAPSHOT.jar!/templates/agent-accountable.asl"),env_failure_reason(env_failure(action_failed(acquirePower,op(default,"( acquirePower bh_group bh_scheme )")))),error(action_failed),error_msg("Action failed: acquirePower(bh_group,bh_scheme), in namespace default, operation ( acquirePower bh_group bh_scheme )"),percept_type(obs_prop),artifact_name(cobj_6,bh_group),workspace(cobj_6,ora4mas,cobj_4)]
[CAgentArch] Action failed: acquirePower(bh_group,bh_scheme), in namespace default, operation ( acquirePower bh_group bh_scheme )
[companyC5] Could not finish intention: intention 260: 
    +schemes([bh_scheme])[artifact_id(cobj_12),percept_type(obs_prop),artifact_name(cobj_12,bh_group),workspace(cobj_12,ora4mas,cobj_10)] <- ... acquirePower(GroupName,S); .concat(GroupName,".",S,NBName); lookupArtifact(NBName,NBId)[wid(W)]; focus(NBId)[wid(W)]; .foreach(.member(S,L),{ lookupArtifact(S,ArtId)[wid(W)]; focus(ArtId)[wid(W)]; acquirePower(GroupName,S); .concat(GroupName,".",S,NBName); lookupArtifact(NBName,NBId)[wid(W)]; focus(NBId)[wid(W)] },java.util.ArrayList$Itr@7abeaf66,{GroupName=bh_group, W=cobj_10, L=[bh_scheme], _302=ora4mas, _301=cobj_12, _300=cobj_12}) / {GroupName=bh_group, S=bh_scheme, W=cobj_10, ArtId=cobj_15, L=[bh_scheme], _302=ora4mas, _301=cobj_12, _300=cobj_12}
	Trigger: +schemes([bh_scheme])[artifact_id(cobj_12),code(acquirePower(bh_group,bh_scheme)),code_line(56),code_src("jar:file:C:\Users\tedeschi\workspace\jacamo\build\libs\jacamo-0.7-SNAPSHOT.jar!/templates/agent-accountable.asl"),env_failure_reason(env_failure(action_failed(acquirePower,op(default,"( acquirePower bh_group bh_scheme )")))),error(action_failed),error_msg("Action failed: acquirePower(bh_group,bh_scheme), in namespace default, operation ( acquirePower bh_group bh_scheme )"),percept_type(obs_prop),artifact_name(cobj_12,bh_group),workspace(cobj_12,ora4mas,cobj_10)]
[companyD9] Could not finish intention: intention 259: 
    +schemes([bh_scheme])[artifact_id(cobj_12),percept_type(obs_prop),artifact_name(cobj_12,bh_group),workspace(cobj_12,ora4mas,cobj_10)] <- ... acquirePower(GroupName,S); .concat(GroupName,".",S,NBName); lookupArtifact(NBName,NBId)[wid(W)]; focus(NBId)[wid(W)]; .foreach(.member(S,L),{ lookupArtifact(S,ArtId)[wid(W)]; focus(ArtId)[wid(W)]; acquirePower(GroupName,S); .concat(GroupName,".",S,NBName); lookupArtifact(NBName,NBId)[wid(W)]; focus(NBId)[wid(W)] },java.util.ArrayList$Itr@42d99465,{GroupName=bh_group, W=cobj_10, L=[bh_scheme], _660=cobj_12, _661=cobj_12, _662=ora4mas}) / {GroupName=bh_group, S=bh_scheme, W=cobj_10, ArtId=cobj_15, L=[bh_scheme], _660=cobj_12, _661=cobj_12, _662=ora4mas}
	Trigger: +schemes([bh_scheme])[artifact_id(cobj_12),code(acquirePower(bh_group,bh_scheme)),code_line(56),code_src("jar:file:C:\Users\tedeschi\workspace\jacamo\build\libs\jacamo-0.7-SNAPSHOT.jar!/templates/agent-accountable.asl"),env_failure_reason(env_failure(action_failed(acquirePower,op(default,"( acquirePower bh_group bh_scheme )")))),error(action_failed),error_msg("Action failed: acquirePower(bh_group,bh_scheme), in namespace default, operation ( acquirePower bh_group bh_scheme )"),percept_type(obs_prop),artifact_name(cobj_12,bh_group),workspace(cobj_12,ora4mas,cobj_10)]
[CAgentArch] Action failed: acquirePower(bh_group,bh_scheme), in namespace default, operation ( acquirePower bh_group bh_scheme )
[companyD2] Could not finish intention: intention 258: 
    +schemes([bh_scheme])[artifact_id(cobj_12),percept_type(obs_prop),artifact_name(cobj_12,bh_group),workspace(cobj_12,ora4mas,cobj_10)] <- ... acquirePower(GroupName,S); .concat(GroupName,".",S,NBName); lookupArtifact(NBName,NBId)[wid(W)]; focus(NBId)[wid(W)]; .foreach(.member(S,L),{ lookupArtifact(S,ArtId)[wid(W)]; focus(ArtId)[wid(W)]; acquirePower(GroupName,S); .concat(GroupName,".",S,NBName); lookupArtifact(NBName,NBId)[wid(W)]; focus(NBId)[wid(W)] },java.util.ArrayList$Itr@22c828f,{GroupName=bh_group, _382=ora4mas, _381=cobj_12, _380=cobj_12, W=cobj_10, L=[bh_scheme]}) / {GroupName=bh_group, S=bh_scheme, _382=ora4mas, _381=cobj_12, _380=cobj_12, W=cobj_10, ArtId=cobj_15, L=[bh_scheme]}
	Trigger: +schemes([bh_scheme])[artifact_id(cobj_12),code(acquirePower(bh_group,bh_scheme)),code_line(56),code_src("jar:file:C:\Users\tedeschi\workspace\jacamo\build\libs\jacamo-0.7-SNAPSHOT.jar!/templates/agent-accountable.asl"),env_failure_reason(env_failure(action_failed(acquirePower,op(default,"( acquirePower bh_group bh_scheme )")))),error(action_failed),error_msg("Action failed: acquirePower(bh_group,bh_scheme), in namespace default, operation ( acquirePower bh_group bh_scheme )"),percept_type(obs_prop),artifact_name(cobj_12,bh_group),workspace(cobj_12,ora4mas,cobj_10)]
[GroupBoard] companyD2 has quit, role site_prep_contractor removed by the platform!
[GroupBoard] companyA has quit, role plumber removed by the platform!
[GroupBoard] companyC5 has quit, role electrician removed by the platform!
[GroupBoard] companyC5 has quit, role painter removed by the platform!
