[companyD2] I am obliged to commit to paint_house on bhsch... doing so
[companyB] I am obliged to commit to prepare_site on bhsch... doing so
[companyE] I am obliged to commit to lay_floors on bhsch... doing so
[companyE] I am obliged to commit to build_walls on bhsch... doing so
[companyE] I am obliged to commit to build_roof on bhsch... doing so
[companyC2] I am obliged to commit to fit_windows on bhsch... doing so
[companyA] I am obliged to commit to install_plumbing on bhsch... doing so
[companyC4] I am obliged to commit to install_electrical_system on bhsch... doing so
[giacomo] I am obliged to commit to management_of_house_building on bhsch... doing so
[companyC2] I am obliged to commit to fit_doors on bhsch... doing so
[companyA] Start new reasoning cycle
[companyC5] Start new reasoning cycle
[companyB] Start new reasoning cycle
[companyD12] Start new reasoning cycle
[companyC4] Start new reasoning cycle
[companyC2] Start new reasoning cycle
[companyD3] Start new reasoning cycle
[companyD5] Start new reasoning cycle
[companyC3] Start new reasoning cycle
[companyE] Start new reasoning cycle
