[giacomo] I am obliged to commit to management_of_house_building on bh_scheme... doing so
[companyA] I am obliged to commit to install_plumbing on bh_scheme... doing so
[companyC2] I am obliged to commit to install_electrical_system on bh_scheme... doing so
[companyD9] I am obliged to commit to fit_windows on bh_scheme... doing so
[companyC2] I am obliged to commit to paint_house on bh_scheme... doing so
[companyD9] I am obliged to commit to fit_doors on bh_scheme... doing so
[companyE] I am obliged to commit to lay_floors on bh_scheme... doing so
[companyE] I am obliged to commit to build_walls on bh_scheme... doing so
[companyE] I am obliged to commit to build_roof on bh_scheme... doing so
[companyD11] I am obliged to commit to prepare_site on bh_scheme... doing so
