[giacomo] I am obliged to commit to management_of_house_building on bhsch... doing so
[companyE] I am obliged to commit to lay_floors on bhsch... doing so
[companyE] I am obliged to commit to build_walls on bhsch... doing so
[companyC1] I am obliged to commit to install_electrical_system on bhsch... doing so
[companyE] I am obliged to commit to build_roof on bhsch... doing so
[companyD11] I am obliged to commit to prepare_site on bhsch... doing so
[companyA] I am obliged to commit to install_plumbing on bhsch... doing so
[companyD9] I am obliged to commit to paint_house on bhsch... doing so
[companyD12] I am obliged to commit to fit_windows on bhsch... doing so
[companyD12] I am obliged to commit to fit_doors on bhsch... doing so
[companyD2] Start new reasoning cycle
[companyD1] Start new reasoning cycle
