[JaCaMoLauncher] Workspace default created.
[JaCaMoLauncher] artifact m1view: mining.MiningPlanet(3,0) at default created.
[JaCaMoLauncher] artifact m2view: mining.MiningPlanet(3,1) at default created.
[JaCaMoLauncher] artifact m4view: mining.MiningPlanet(3,3) at default created.
[JaCaMoLauncher] artifact miningProt: mining.MiningProtocol() at default created.
[JaCaMoLauncher] artifact m3view: mining.MiningPlanet(3,2) at default created.
[miner3] I am going to go near (17,8)
[miner4] I am going to go near (20,16)
[miner2] I am going to go near (6,6)
[miner1] I am going to go near (12,24)
[miner3] No failure event was generated for +!enact[code(enact("miner")),code_line(16),code_src("C:/Users/tedeschi/workspace/2COMM/2COMMJaCaMoExamples/commits-gold-miners/src/agt/minerCommitsWork.asl"),env_failure_reason(unknown_operation("enact/1")),error(action_failed),error_msg("Unknown Operation"),source(self)]
intention 9: 
    +!enact[source(self)] <- ... enact("miner") / {}

[miner4] No failure event was generated for +!enact[code(enact("miner")),code_line(16),code_src("C:/Users/tedeschi/workspace/2COMM/2COMMJaCaMoExamples/commits-gold-miners/src/agt/minerCommitsWork.asl"),env_failure_reason(unknown_operation("enact/1")),error(action_failed),error_msg("Unknown Operation"),source(self)]
intention 10: 
    +!enact[source(self)] <- ... enact("miner") / {}

[miner2] No failure event was generated for +!enact[code(enact("miner")),code_line(16),code_src("C:/Users/tedeschi/workspace/2COMM/2COMMJaCaMoExamples/commits-gold-miners/src/agt/minerCommitsWork.asl"),env_failure_reason(unknown_operation("enact/1")),error(action_failed),error_msg("Unknown Operation"),source(self)]
intention 11: 
    +!enact[source(self)] <- ... enact("miner") / {}

[miner1] No failure event was generated for +!enact[code(enact("miner")),code_line(16),code_src("C:/Users/tedeschi/workspace/2COMM/2COMMJaCaMoExamples/commits-gold-miners/src/agt/minerCommitsWork.asl"),env_failure_reason(unknown_operation("enact/1")),error(action_failed),error_msg("Unknown Operation"),source(self)]
intention 12: 
    +!enact[source(self)] <- ... enact("miner") / {}

[miner4] sto gia' trasportando, comunico 1920
[miner4] sto gia' trasportando, comunico 2020
[miner1] sto gia' trasportando, comunico 11
[miner4] I am at (20,17) which is near (20,16)
[miner4] I am going to go near (6,23)
[miner3] sto gia' trasportando, comunico 1520
[miner2] I am at (6,5) which is near (6,6)
[miner2] I am going to go near (5,7)
[miner2] I am at (5,6) which is near (5,7)
[miner2] I am going to go near (2,27)
[miner4] I am at (6,22) which is near (6,23)
[miner4] I am going to go near (16,11)
[miner3] I am at (17,9) which is near (17,8)
[miner3] I am going to go near (8,25)
[miner4] sto gia' trasportando, comunico 1222
[miner1] I am at (12,23) which is near (12,24)
[miner1] I am going to go near (27,33)
[miner1] sto gia' trasportando, comunico 2023
[miner4] I am at (16,12) which is near (16,11)
[miner4] I am going to go near (1,33)
[miner2] I am at (2,26) which is near (2,27)
[miner2] I am going to go near (0,8)
[miner1] sto gia' trasportando, comunico 2424
[miner3] I am at (8,24) which is near (8,25)
[miner3] I am going to go near (10,28)
[miner3] I am at (10,27) which is near (10,28)
[miner3] I am going to go near (6,10)
[miner1] I am at (27,32) which is near (27,33)
[miner1] I am going to go near (9,4)
[miner2] I am at (0,9) which is near (0,8)
[miner2] I am going to go near (25,3)
[miner3] I am at (6,11) which is near (6,10)
[miner3] I am going to go near (23,7)
[miner4] I am at (1,32) which is near (1,33)
[miner4] I am going to go near (9,17)
